Division,WeightClassKg,Place,Name,Team,BodyweightKg,Best3SquatKg,Best3BenchKg,Best3DeadliftKg,TotalKg,Equipment,Event,Sex,BirthDate
Boys,51.71,1,Juan Gonzales,Gladewater Sabine,49.53,124.74,65.77,129.27,319.78,Single-ply,SBD,M,
Boys,51.71,2,Joshua Commacho,Hooks,47.81,97.52,61.23,111.13,269.89,Single-ply,SBD,M,
Boys,51.71,3,Nick Papas,Redwater,45.45,81.65,40.82,102.06,224.53,Single-ply,SBD,M,
Boys,51.71,4,Keyshawn McDade,New Boston,47.99,90.72,43.09,88.45,222.26,Single-ply,SBD,M,
Boys,51.71,5,Juan Ramos,Daingerfield,50.89,65.77,45.36,106.59,217.72,Single-ply,SBD,M,
Boys,51.71,6,Jd Allen,New Boston,50.98,79.38,38.56,86.18,204.12,Single-ply,SBD,M,
Boys,51.71,7,Matt Watkins,Daingerfield,49.9,65.77,45.36,86.18,197.31,Single-ply,SBD,M,
Boys,51.71,DQ,Levinsky Cooper,Texarkana Texas,46.81,106.59,,113.4,,Single-ply,SBD,M,
Boys,55.79,1,Elijah Burrow,Gilmer,55.61,102.06,79.38,106.59,288.03,Single-ply,SBD,M,
Boys,55.79,2,Alex Simpson,Daingerfield,51.89,95.25,68.04,111.13,274.42,Single-ply,SBD,M,
Boys,55.79,3,Landon Caudle,Maud,52.71,95.25,61.23,117.93,274.42,Single-ply,SBD,M,
Boys,55.79,4,Jayden Mendez,Mount Pleasant,55.07,102.06,47.63,102.06,251.74,Single-ply,SBD,M,
Boys,55.79,5,Ethan Reeder,Daingerfield,55.61,58.97,43.09,88.45,190.51,Single-ply,SBD,M,
Boys,59.87,1,Caden Phillips,Gladewater Sabine,58.42,174.63,113.4,161.03,449.06,Single-ply,SBD,M,
Boys,59.87,2,Caleb Cox,Gladewater Sabine,57.7,151.95,102.06,149.69,403.7,Single-ply,SBD,M,
Boys,59.87,3,Avery Whitlow,Atlanta,58.51,151.95,83.91,163.29,399.16,Single-ply,SBD,M,
Boys,59.87,4,Michael Lane,Linden-Kildare,59.15,158.76,81.65,158.76,399.16,Single-ply,SBD,M,
Boys,59.87,5,Seth Hicks,Hughes Springs,59.15,145.15,90.72,149.69,385.55,Single-ply,SBD,M,
Boys,59.87,6,Karson Owens,Mount Pleasant Chapel Hill,59.15,136.08,90.72,136.08,362.87,Single-ply,SBD,M,
Boys,59.87,7,Josiah Hunt,Atlanta,58.79,120.2,74.84,129.27,324.32,Single-ply,SBD,M,
Boys,59.87,8,Amari Jones,New Boston,57.79,86.18,70.31,113.4,269.89,Single-ply,SBD,M,
Boys,59.87,9,RJ Galloway,Texarkana Liberty-Eylau,57.06,61.23,61.23,122.47,244.94,Single-ply,SBD,M,
Boys,59.87,10,Jayden Mitchell,Daingerfield,58.79,77.11,54.43,106.59,238.14,Single-ply,SBD,M,
Boys,67.13,1,Kile Stripland,Gladewater Sabine,66.95,190.51,129.27,188.24,508.02,Single-ply,SBD,M,
Boys,67.13,2,Avery Weaver,Gilmer,66.41,158.76,90.72,176.9,426.38,Single-ply,SBD,M,
Boys,67.13,3,Lane Davis,Mount Pleasant Chapel Hill,64.41,149.69,102.06,156.49,408.23,Single-ply,SBD,M,
Boys,67.13,4,Austin Walker,New Boston,62.87,145.15,79.38,149.69,374.21,Single-ply,SBD,M,
Boys,67.13,5,Leo Ferardo,Marshall,64.86,136.08,90.72,147.42,374.21,Single-ply,SBD,M,
Boys,67.13,6,Lino Diaz,Gilmer,62.78,136.08,77.11,149.69,362.87,Single-ply,SBD,M,
Boys,67.13,7,James Phillips,Hughes Springs,65.77,127.01,61.23,142.88,331.12,Single-ply,SBD,M,
Boys,67.13,8,Austin Phelps,Atlanta,62.87,111.13,83.91,124.74,319.78,Single-ply,SBD,M,
Boys,67.13,9,Kearon Padron,Daingerfield,64.05,104.33,70.31,142.88,317.51,Single-ply,SBD,M,
Boys,67.13,10,Lance Miller,Clarksville,66.86,106.59,61.23,149.69,317.51,Single-ply,SBD,M,
Boys,74.84,1,Zane Smith,Gladewater Sabine,72.76,199.58,156.49,208.65,564.72,Single-ply,SBD,M,
Boys,74.84,2,Cruz Hernandez,De Kalb,72.67,215.46,131.54,192.78,539.77,Single-ply,SBD,M,
Boys,74.84,3,Camden Ward,Gladewater Sabine,70.49,183.7,120.2,199.58,503.49,Single-ply,SBD,M,
Boys,74.84,4,Garrison Conner,Diana New Diana,73.48,170.1,108.86,204.12,483.08,Single-ply,SBD,M,
Boys,74.84,5,Delvon Federick,Queen City,74.21,181.44,99.79,201.85,483.08,Single-ply,SBD,M,
Boys,74.84,6,Markus Gonzalez,Waskom,70.03,170.1,115.67,190.51,476.27,Single-ply,SBD,M,
Boys,74.84,7,Tristian Lee,Maud,74.48,176.9,111.13,183.7,471.74,Single-ply,SBD,M,
Boys,74.84,8,Zander Stroman,Harleton,72.85,174.63,120.2,170.1,464.93,Single-ply,SBD,M,
Boys,74.84,9,Nick Paschall,Harleton,72.85,170.1,104.33,183.7,458.13,Single-ply,SBD,M,
Boys,74.84,10,Kaden Satterfield,Queen City,74.84,176.9,97.52,179.17,453.59,Single-ply,SBD,M,
Boys,74.84,11,Chase Mays,Mount Pleasant Chapel Hill,70.67,167.83,106.59,174.63,449.06,Single-ply,SBD,M,
Boys,74.84,12,Christian Nard,Queen City,72.94,174.63,97.52,176.9,449.06,Single-ply,SBD,M,
Boys,74.84,13,Ethan Evans,Simms Bowie,74.66,151.95,108.86,172.37,433.18,Single-ply,SBD,M,
Boys,74.84,14,Riley Owen,Redwater,74.03,142.88,117.93,167.83,428.64,Single-ply,SBD,M,
Boys,74.84,15,Xavier Hawkins,De Kalb,73.48,156.49,83.91,158.76,399.16,Single-ply,SBD,M,
Boys,74.84,16,Tayton Binfet,Harleton,74.03,145.15,92.99,156.49,394.63,Single-ply,SBD,M,
Boys,74.84,17,Eddie Ferado,Marshall,69.04,136.08,95.25,156.49,387.82,Single-ply,SBD,M,
Boys,74.84,18,Luke Holyfield,Gilmer,71.67,140.61,81.65,147.42,369.68,Single-ply,SBD,M,
Boys,74.84,19,Grayson Smith,Maud,71.49,127.01,86.18,151.95,365.14,Single-ply,SBD,M,
Boys,74.84,20,Erichmans Hor,Jefferson,67.77,115.67,81.65,163.29,360.61,Single-ply,SBD,M,
Boys,74.84,21,Gabriel Formby,Texarkana Texas,68.86,124.74,106.59,129.27,360.61,Single-ply,SBD,M,
Boys,74.84,22,Oscar Otero,Mount Pleasant,74.48,113.4,74.84,156.49,344.73,Single-ply,SBD,M,
Boys,74.84,23,Arthur Mcelroy,Texarkana Texas,70.03,102.06,104.33,136.08,342.46,Single-ply,SBD,M,
Boys,74.84,24,Timothy Brady,Queen City,72.94,111.13,63.5,124.74,299.37,Single-ply,SBD,M,
Boys,74.84,25,Logan Marsh,Pittsburg,73.3,113.4,56.7,127.01,297.1,Single-ply,SBD,M,
Boys,74.84,26,Jamarion Askew,Daingerfield,73.48,90.72,61.23,124.74,276.69,Single-ply,SBD,M,
Boys,74.84,DQ,Cj Betts,De Kalb,71.94,,,,,Single-ply,SBD,M,
Boys,74.84,DQ,Matt Morgan,Gladewater Sabine,72.48,,,,,Single-ply,SBD,M,
Boys,82.1,1,Jake Murray,Hughes Springs,80.38,195.04,115.67,215.46,526.17,Single-ply,SBD,M,
Boys,82.1,2,Keegan Sprouse,Gilmer,78.47,181.44,115.67,213.19,510.29,Single-ply,SBD,M,
Boys,82.1,3,Kyle Gross,Atlanta,80.56,158.76,122.47,226.8,508.02,Single-ply,SBD,M,
Boys,82.1,4,David McKeever,Redwater,75.93,183.7,113.4,192.78,489.88,Single-ply,SBD,M,
Boys,82.1,5,Andrew White,Redwater,81.92,156.49,108.86,183.7,449.06,Single-ply,SBD,M,
Boys,82.1,6,Trey Stevenson,Waskom,79.2,163.29,102.06,176.9,442.25,Single-ply,SBD,M,
Boys,82.1,7,Aidan Hernandez,Linden-Kildare,77.29,181.44,83.91,174.63,439.98,Single-ply,SBD,M,
Boys,82.1,8,Xavier Nash,Atlanta,77.11,161.03,95.25,181.44,437.72,Single-ply,SBD,M,
Boys,82.1,9,Brenden Scott,Harleton,75.66,163.29,97.52,174.63,435.45,Single-ply,SBD,M,
Boys,82.1,10,Trae Smith,Jefferson,77.84,156.49,102.06,154.22,412.77,Single-ply,SBD,M,
Boys,82.1,11,Shawn Veal,New Boston,79.56,154.22,83.91,170.1,408.23,Single-ply,SBD,M,
Boys,82.1,12,Kaeson Watts,New Boston,76.66,136.08,99.79,165.56,401.43,Single-ply,SBD,M,
Boys,82.1,13,Clint Wooding,Queen City,78.47,136.08,90.72,174.63,401.43,Single-ply,SBD,M,
Boys,82.1,14,Holden Miller,Hughes Springs,80.83,138.35,97.52,149.69,385.55,Single-ply,SBD,M,
Boys,82.1,15,Jaymari Howard,Atlanta,78.29,133.81,83.91,165.56,383.29,Single-ply,SBD,M,
Boys,82.1,16,Jamar Smith,New Boston,79.02,142.88,92.99,147.42,383.29,Single-ply,SBD,M,
Boys,82.1,17,Gavin Brooks,Redwater,81.92,142.88,83.91,149.69,376.48,Single-ply,SBD,M,
Boys,82.1,18,Kamren Stiger,Hooks,78.11,142.88,108.86,102.06,353.8,Single-ply,SBD,M,
Boys,82.1,19,Charles Harris,Pittsburg,77.29,136.08,61.23,145.15,342.46,Single-ply,SBD,M,
Boys,82.1,20,Jonah Walker,Daingerfield,81.37,92.99,90.72,147.42,331.12,Single-ply,SBD,M,
Boys,82.1,21,Taiwon Henderson,Atlanta,81.37,113.4,56.7,117.93,288.03,Single-ply,SBD,M,
Boys,82.1,22,Dylan Savage,Atlanta,77.84,83.91,61.23,106.59,251.74,Single-ply,SBD,M,
Boys,89.81,1,Amar Love,De Kalb,85.18,249.48,138.35,249.48,637.3,Single-ply,SBD,M,
Boys,89.81,2,Ryan Yeater,Jefferson,84.73,226.8,147.42,219.99,594.21,Single-ply,SBD,M,
Boys,89.81,3,Dalton Daniel,New Boston,85.28,258.55,113.4,215.46,587.4,Single-ply,SBD,M,
Boys,89.81,4,Parker Key,Jefferson,87.54,219.99,133.81,217.72,571.53,Single-ply,SBD,M,
Boys,89.81,5,Kaden Richard,Gladewater Sabine,84.64,219.99,142.88,206.38,569.26,Single-ply,SBD,M,
Boys,89.81,6,Landon Moses,Gladewater Sabine,87.72,201.85,147.42,195.04,544.31,Single-ply,SBD,M,
Boys,89.81,7,Daniel García,Mount Pleasant,87.72,204.12,92.99,201.85,498.95,Single-ply,SBD,M,
Boys,89.81,8,Tykwon Williams,Texarkana Texas,84.91,183.7,117.93,183.7,485.34,Single-ply,SBD,M,
Boys,89.81,9,Carter Bibb,Harleton,87,181.44,104.33,197.31,483.08,Single-ply,SBD,M,
Boys,89.81,10,Ryder Marshall,Mount Pleasant,86.55,163.29,97.52,174.63,435.45,Single-ply,SBD,M,
Boys,89.81,11,Jonah Sanchez,New Boston,83.1,158.76,108.86,165.56,433.18,Single-ply,SBD,M,
Boys,89.81,12,Wesley Kennedy,Atlanta,85.09,151.95,83.91,181.44,417.3,Single-ply,SBD,M,
Boys,89.81,13,Texan Lancaster,Hughes Springs,83.46,145.15,104.33,156.49,405.97,Single-ply,SBD,M,
Boys,89.81,14,Braxton Peiffer,Hughes Springs,86,136.08,111.13,156.49,403.7,Single-ply,SBD,M,
Boys,89.81,15,DeVon Hardiman,Redwater,89.27,149.69,102.06,151.95,403.7,Single-ply,SBD,M,
Boys,89.81,16,Cade Canfield,Harleton,88.45,154.22,88.45,142.88,385.55,Single-ply,SBD,M,
Boys,89.81,17,Canden Green,Simms Bowie,87.36,142.88,90.72,147.42,381.02,Single-ply,SBD,M,
Boys,89.81,18,Weston Collard,Daingerfield,83.19,108.86,68.04,142.88,319.78,Single-ply,SBD,M,
Boys,99.79,1,Daylon Branham,Gladewater Sabine,90.36,235.87,145.15,231.33,612.35,Single-ply,SBD,M,
Boys,99.79,2,Cole Edwards,Hughes Springs,95.53,226.8,145.15,238.14,610.08,Single-ply,SBD,M,
Boys,99.79,3,Taber Childs,Harleton,91.99,235.87,133.81,235.87,605.55,Single-ply,SBD,M,
Boys,99.79,4,Easton Minter,Redwater,98.61,231.33,145.15,226.8,603.28,Single-ply,SBD,M,
Boys,99.79,5,Knox Tomlinson,Jefferson,97.25,231.33,136.08,213.19,580.6,Single-ply,SBD,M,
Boys,99.79,6,Payton Yandle,De Kalb,92.9,219.99,142.88,215.46,578.33,Single-ply,SBD,M,
Boys,99.79,7,Taylor Wilson,Gladewater Sabine,93.26,208.65,133.81,181.44,523.9,Single-ply,SBD,M,
Boys,99.79,8,Seth Jordan,Gilmer,91.26,204.12,106.59,204.12,514.83,Single-ply,SBD,M,
Boys,99.79,9,Courtlyn Crabtree,Texarkana Liberty-Eylau,94.35,190.51,113.4,185.97,489.88,Single-ply,SBD,M,
Boys,99.79,10,Jaylon McFarland,Marshall,95.16,188.24,113.4,188.24,489.88,Single-ply,SBD,M,
Boys,99.79,11,Johnathan Olguin,Clarksville,93.44,163.29,113.4,185.97,462.66,Single-ply,SBD,M,
Boys,99.79,12,Jose Gonzalez,Mount Pleasant,93.17,192.78,88.45,172.37,453.59,Single-ply,SBD,M,
Boys,99.79,13,Dylan Braley,Simms Bowie,97.07,174.63,113.4,165.56,453.59,Single-ply,SBD,M,
Boys,99.79,14,Gunner Robinson,Simms Bowie,95.25,145.15,92.99,167.83,405.97,Single-ply,SBD,M,
Boys,99.79,15,Karson Brown,Mount Pleasant,94.17,147.42,92.99,154.22,394.63,Single-ply,SBD,M,
Boys,99.79,16,Brandon Harwell,Queen City,93.71,147.42,83.91,151.95,383.29,Single-ply,SBD,M,
Boys,99.79,17,Lawton Nichols,Texarkana Texas,99.25,136.08,70.31,158.76,365.14,Single-ply,SBD,M,
Boys,99.79,18,Kollin Posey,Pittsburg,95.98,142.88,68.04,149.69,360.61,Single-ply,SBD,M,
Boys,99.79,19,Zeke Crane,Daingerfield,92.9,113.4,77.11,142.88,333.39,Single-ply,SBD,M,
Boys,99.79,20,Curtis Sellers,Atlanta,98.16,108.86,63.5,154.22,326.59,Single-ply,SBD,M,
Boys,99.79,21,Daymion Sikes,Daingerfield,94.17,104.33,72.57,142.88,319.78,Single-ply,SBD,M,
Boys,99.79,22,James Hays,Hooks,97.61,115.67,79.38,115.67,310.71,Single-ply,SBD,M,
Boys,99.79,23,Marcellous Kirk,Atlanta,98.88,102.06,61.23,142.88,306.17,Single-ply,SBD,M,
Boys,109.77,1,Cade Pipes,Redwater,100.33,254.01,154.22,226.8,635.03,Single-ply,SBD,M,
Boys,109.77,2,Steven Calico,Gladewater Sabine,105.96,235.87,147.42,235.87,619.15,Single-ply,SBD,M,
Boys,109.77,3,Carson Combs,Marshall,103.87,229.06,149.69,215.46,594.21,Single-ply,SBD,M,
Boys,109.77,4,Jaden Wells,Atlanta,106.23,215.46,142.88,235.87,594.21,Single-ply,SBD,M,
Boys,109.77,5,Clay Fant,Waskom,101.06,238.14,138.35,215.46,591.94,Single-ply,SBD,M,
Boys,109.77,6,De'Vonta Waites,Jefferson,108.32,244.94,108.86,204.12,557.92,Single-ply,SBD,M,
Boys,109.77,7,Dawson Brooks,Gladewater Sabine,102.15,219.99,124.74,185.97,530.7,Single-ply,SBD,M,
Boys,109.77,8,Connor Hagerty,Marshall,103.42,204.12,122.47,204.12,530.7,Single-ply,SBD,M,
Boys,109.77,9,Isaiah Farmer,Jefferson,104.96,204.12,113.4,192.78,510.29,Single-ply,SBD,M,
Boys,109.77,10,Kanye Federick,Texarkana Liberty-Eylau,101.15,183.7,117.93,204.12,505.76,Single-ply,SBD,M,
Boys,109.77,11,Gavin Pilarowski,Marshall,104.6,181.44,113.4,197.31,492.15,Single-ply,SBD,M,
Boys,109.77,12,Oscar Rodriquez,Hughes Springs,102.97,183.7,117.93,185.97,487.61,Single-ply,SBD,M,
Boys,109.77,13,Rogers Clark,Texarkana Liberty-Eylau,101.24,158.76,115.67,188.24,462.66,Single-ply,SBD,M,
Boys,109.77,14,Orlando Barnes,Texarkana Texas,100.33,174.63,111.13,165.56,451.32,Single-ply,SBD,M,
Boys,109.77,15,Aiden Arterberry,Gilmer,100.7,174.63,102.06,167.83,444.52,Single-ply,SBD,M,
Boys,109.77,16,Grayson Howard,Diana New Diana,100.79,167.83,108.86,167.83,444.52,Single-ply,SBD,M,
Boys,109.77,17,Jamyrion White,Pittsburg,103.42,154.22,113.4,167.83,435.45,Single-ply,SBD,M,
Boys,109.77,18,Adrick Patterson,Atlanta,102.69,147.42,90.72,154.22,392.36,Single-ply,SBD,M,
Boys,109.77,19,Tyson Bell,Queen City,108.59,136.08,86.18,170.1,392.36,Single-ply,SBD,M,
Boys,109.77,20,Colton Tutor,Redwater,106.59,142.88,95.25,136.08,374.21,Single-ply,SBD,M,
Boys,109.77,21,Seth Robertson,Mount Pleasant,107.05,102.06,68.04,142.88,312.98,Single-ply,SBD,M,
Boys,109.77,22,Trevon Jones,Daingerfield,105.51,74.84,74.84,156.49,306.17,Single-ply,SBD,M,
Boys,109.77,23,Jesse Gonzales,Mount Pleasant Chapel Hill,101.7,83.91,45.36,113.4,242.67,Single-ply,SBD,M,
Boys,124.74,1,Bryce Clark,Jefferson,124.47,272.16,145.15,231.33,648.64,Single-ply,SBD,M,
Boys,124.74,2,Brandon Obenoskey,Simms Bowie,115.21,219.99,142.88,226.8,589.67,Single-ply,SBD,M,
Boys,124.74,3,Jayden Johnson,Harleton,111.49,226.8,113.4,226.8,566.99,Single-ply,SBD,M,
Boys,124.74,4,Corey Ingram,De Kalb,111.86,226.8,133.81,206.38,566.99,Single-ply,SBD,M,
Boys,124.74,5,John Owens,Redwater,117.48,192.78,154.22,206.38,553.38,Single-ply,SBD,M,
Boys,124.74,6,Ariel Briceno,Pittsburg,118.02,235.87,117.93,192.78,546.58,Single-ply,SBD,M,
Boys,124.74,7,Lane Woods,Harleton,111.49,226.8,113.4,204.12,544.31,Single-ply,SBD,M,
Boys,124.74,8,Marlon Hayes,Daingerfield,110.31,179.17,142.88,213.19,535.24,Single-ply,SBD,M,
Boys,124.74,9,Malik Tatum,Daingerfield,113.94,188.24,111.13,226.8,526.17,Single-ply,SBD,M,
Boys,124.74,10,Carlos Cortes,Atlanta,121.93,204.12,111.13,192.78,508.02,Single-ply,SBD,M,
Boys,124.74,11,Peyton Murray,Harleton,111.49,192.78,111.13,195.04,498.95,Single-ply,SBD,M,
Boys,124.74,12,Daniel Jones,Queen City,118.12,197.31,102.06,197.31,496.68,Single-ply,SBD,M,
Boys,124.74,13,Clayton Miller,Mount Pleasant,109.95,199.58,111.13,183.7,494.42,Single-ply,SBD,M,
Boys,124.74,14,Trevor Balk,Maud,116.48,185.97,149.69,158.76,494.42,Single-ply,SBD,M,
Boys,124.74,15,Nick Yim,Redwater,116.48,195.04,102.06,190.51,487.61,Single-ply,SBD,M,
Boys,124.74,16,Makyron Whitaker,Texarkana Texas,117.3,183.7,120.2,181.44,485.34,Single-ply,SBD,M,
Boys,124.74,17,Isaac Lopez,Mount Pleasant,111.13,167.83,115.67,197.31,480.81,Single-ply,SBD,M,
Boys,124.74,18,Kyle Wright,Harleton,111.86,192.78,97.52,183.7,474,Single-ply,SBD,M,
Boys,124.74,19,Jakaylan Williams,Marshall,121.11,170.1,140.61,158.76,469.47,Single-ply,SBD,M,
Boys,124.74,20,Davonne Crocker,Atlanta,112.85,181.44,74.84,181.44,437.72,Single-ply,SBD,M,
Boys,124.74,21,Jordan Henderson JR,Texarkana Texas,115.03,129.27,111.13,188.24,428.64,Single-ply,SBD,M,
Boys,124.74,22,Richard Jackson,Texarkana Texas,118.93,147.42,83.91,192.78,424.11,Single-ply,SBD,M,
Boys,124.74,23,Morgan Thrapp,Mount Pleasant Chapel Hill,122.56,156.49,92.99,149.69,399.16,Single-ply,SBD,M,
Boys,124.74,24,Paul McKeon,Hooks,112.76,147.42,102.06,142.88,392.36,Single-ply,SBD,M,
Boys,124.74,25,Nick Wallace,Daingerfield,115.85,149.69,86.18,142.88,378.75,Single-ply,SBD,M,
Boys,124.74,26,Garrett Tilley,Atlanta,123.1,115.67,70.31,124.74,310.71,Single-ply,SBD,M,
Boys,139.71,1,Taron Satchell,Marshall,136.8,263.08,165.56,238.14,666.78,Single-ply,SBD,M,
Boys,139.71,2,Braelyn Ward,Gilmer,128.46,226.8,151.95,229.06,607.81,Single-ply,SBD,M,
Boys,139.71,3,Brandon Childs,Texarkana Texas,128.82,242.67,163.29,183.7,589.67,Single-ply,SBD,M,
Boys,139.71,4,Rhyen Pope,Queen City,127.28,215.46,117.93,233.6,566.99,Single-ply,SBD,M,
Boys,139.71,5,John Jack,Texarkana Texas,134.17,195.04,102.06,188.24,485.34,Single-ply,SBD,M,
Boys,139.71,6,Landen Manning,Gilmer,136.98,185.97,113.4,158.76,458.13,Single-ply,SBD,M,
Boys,139.71,7,Austin Allen,Simms Bowie,130.45,165.56,113.4,165.56,444.52,Single-ply,SBD,M,
Boys,139.71,8,Zach Hulschur,Jefferson,136.17,190.51,83.91,161.03,435.45,Single-ply,SBD,M,
Boys,139.71,9,Corbyn Wilson,Atlanta,135.17,151.95,111.13,149.69,412.77,Single-ply,SBD,M,
Boys,139.71,10,Rylie Culpepper,Maud,139.16,149.69,79.38,176.9,405.97,Single-ply,SBD,M,
Boys,139.71,11,Matthew Lingle,Texarkana Texas,132.54,142.88,111.13,136.08,390.09,Single-ply,SBD,M,
Boys,139.71+,1,Cedric Davis,Queen City,180.62,292.57,156.49,272.16,721.21,Single-ply,SBD,M,
Boys,139.71+,2,Jason Murphy,Texarkana Liberty-Eylau,157.31,258.55,142.88,272.16,673.58,Single-ply,SBD,M,
Boys,139.71+,3,Nicholas Batton,Texarkana Texas,153.59,201.85,142.88,213.19,557.92,Single-ply,SBD,M,
Boys,139.71+,4,Rhett Tucker,Simms Bowie,151.59,192.78,136.08,188.24,517.1,Single-ply,SBD,M,
Boys,139.71+,5,Brandon Rice,Jefferson,159.85,204.12,104.33,181.44,489.88,Single-ply,SBD,M,
Boys,139.71+,6,Max Ramirez,Harleton,147.78,185.97,115.67,183.7,485.34,Single-ply,SBD,M,
Boys,139.71+,7,Matthew Zamarrippa,Hughes Springs,157.12,172.37,120.2,181.44,474,Single-ply,SBD,M,
Boys,139.71+,8,Avery Fisher,Hughes Springs,140.89,172.37,115.67,181.44,469.47,Single-ply,SBD,M,
Boys,139.71+,9,Johnathan Scott,New Boston,160.3,172.37,106.59,163.29,442.25,Single-ply,SBD,M,
Boys,139.71+,10,Sylas Hollins,Redwater,152.77,151.95,106.59,170.1,428.64,Single-ply,SBD,M,
Boys,139.71+,11,Dakota Fowler,New Boston,147.78,95.25,56.7,95.25,247.21,Single-ply,SBD,M,
