Division,WeightClassKg,Place,Name,Team,BodyweightKg,Best3SquatKg,Best3BenchKg,Best3DeadliftKg,TotalKg,Equipment,Event,Sex,BirthDate
Boys,51.71,1,Daniel Limon,La Joya Juarez-Lincoln,50.67,99.79,54.43,113.4,267.62,Single-ply,SBD,M,
Boys,51.71,2,Ace Reyna,La Joya,49.99,90.72,52.16,102.06,244.94,Single-ply,SBD,M,
Boys,55.79,1,Rey Lopez,Edinburg,54.84,104.33,65.77,124.74,294.84,Single-ply,SBD,M,
Boys,55.79,2,Justin Acosta,Edinburg North,55.34,92.99,61.23,120.2,274.42,Single-ply,SBD,M,
Boys,59.87,1,Emilo Cantu,La Joya,57.7,136.08,68.04,136.08,340.19,Single-ply,SBD,M,
Boys,59.87,2,Roland Saenz,Edinburg,59.87,127.01,79.38,127.01,333.39,Single-ply,SBD,M,
Boys,59.87,3,Jesus Gonzalez,Edinburg North,57.42,113.4,63.5,133.81,310.71,Single-ply,SBD,M,
Boys,59.87,4,Branden Garcia,La Joya,59.38,79.38,58.97,108.86,247.21,Single-ply,SBD,M,
Boys,59.87,5,Rodriguez Ryan,La Joya,58.65,61.23,43.09,83.91,188.24,Single-ply,SBD,M,
Boys,67.13,1,Nick Moreno,La Joya Juarez-Lincoln,66.54,231.33,122.47,208.65,562.45,Single-ply,SBD,M,
Boys,67.13,2,Gael Gonzalez,La Joya Palmview,64.86,206.38,108.86,206.38,521.63,Single-ply,SBD,M,
Boys,67.13,3,Ryen Abrego,Edinburg,66.63,165.56,108.86,151.95,426.38,Single-ply,SBD,M,
Boys,67.13,4,Adan De La Cruz,McAllen Rowe,65.91,154.22,104.33,156.49,415.04,Single-ply,SBD,M,
Boys,67.13,5,Jose Williams,La Joya Juarez-Lincoln,63.5,145.15,92.99,170.1,408.23,Single-ply,SBD,M,
Boys,67.13,6,Josiah Caballero,Edinburg,64.73,142.88,90.72,161.03,394.63,Single-ply,SBD,M,
Boys,67.13,7,Carlos Rodriguez,La Joya,65.82,136.08,92.99,161.03,390.09,Single-ply,SBD,M,
Boys,67.13,8,Victor Hernandez,Rio Grande City Grulla,66.27,154.22,90.72,131.54,376.48,Single-ply,SBD,M,
Boys,67.13,9,Juan Hernandez,La Joya,66.27,124.74,83.91,142.88,351.53,Single-ply,SBD,M,
Boys,67.13,10,Francisco Lopez,McAllen Rowe,66.45,108.86,81.65,136.08,326.59,Single-ply,SBD,M,
Boys,67.13,11,Jocab Faz,Edinburg North,61.69,113.4,74.84,124.74,312.98,Single-ply,SBD,M,
Boys,74.84,1,Angel Cantu,La Joya Palmview,74.66,235.87,147.42,219.99,603.28,Single-ply,SBD,M,
Boys,74.84,2,Allan Benavidez,Edinburg North,74.75,238.14,136.08,201.85,576.06,Single-ply,SBD,M,
Boys,74.84,3,Derek Garza,La Joya Palmview,74.48,179.17,83.91,181.44,444.52,Single-ply,SBD,M,
Boys,74.84,4,Brandon Arredondo,Rio Grande City,72.53,163.29,97.52,163.29,424.11,Single-ply,SBD,M,
Boys,74.84,5,Jesus Marroquin,Rio Grande City Grulla,72.89,113.4,86.18,149.69,349.27,Single-ply,SBD,M,
Boys,74.84,6,Raul Sevilla,Rio Grande City,71.76,138.35,83.91,124.74,347,Single-ply,SBD,M,
Boys,74.84,7,Gammaliel Garcia,Edinburg North,71.76,117.93,79.38,138.35,335.66,Single-ply,SBD,M,
Boys,82.1,1,Fidencio Ortega,La Joya Juarez-Lincoln,80.6,240.4,142.88,210.92,594.21,Single-ply,SBD,M,
Boys,82.1,2,Jonathan Maldonado,Edinburg,80.97,204.12,149.69,165.56,519.36,Single-ply,SBD,M,
Boys,82.1,3,Jordan Ayala,Edinburg,81.1,192.78,124.74,183.7,501.22,Single-ply,SBD,M,
Boys,82.1,4,Erasmo Leal,Rio Grande City,77.47,167.83,97.52,183.7,449.06,Single-ply,SBD,M,
Boys,82.1,5,Patricio Garcia,McAllen Rowe,78.74,151.95,115.67,158.76,426.38,Single-ply,SBD,M,
Boys,82.1,6,Ernesto Garcia,Rio Grande City,80.65,154.22,102.06,154.22,410.5,Single-ply,SBD,M,
Boys,82.1,7,Mario Lozano,La Joya,82.1,156.49,72.57,158.76,387.82,Single-ply,SBD,M,
Boys,82.1,DQ,Adrian Salinas,Edinburg,81.69,,,,,Single-ply,SBD,M,
Boys,89.81,1,Ray Pecina,La Joya Palmview,86.64,226.8,142.88,226.8,596.47,Single-ply,SBD,M,
Boys,89.81,2,Jose Cavazos,McAllen Rowe,88,235.87,138.35,197.31,571.53,Single-ply,SBD,M,
Boys,89.81,3,Noah Perez,Edinburg,87.72,185.97,120.2,185.97,492.15,Single-ply,SBD,M,
Boys,89.81,4,Raul Galvan,Rio Grande City Grulla,83.37,183.7,108.86,181.44,474,Single-ply,SBD,M,
Boys,89.81,5,Jesse Gonzalez,La Joya,89.81,167.83,122.47,181.44,471.74,Single-ply,SBD,M,
Boys,89.81,6,Victor Hernandez- JL,La Joya Juarez-Lincoln,89.36,154.22,104.33,147.42,405.97,Single-ply,SBD,M,
Boys,89.81,7,Deven Becerra,Rio Grande City Grulla,89.31,174.63,90.72,133.81,399.16,Single-ply,SBD,M,
Boys,89.81,8,Albert Gamez,Edinburg,83.19,149.69,92.99,136.08,378.75,Single-ply,SBD,M,
Boys,89.81,9,Alejandro Bosada,McAllen Rowe,89.45,142.88,72.57,133.81,349.27,Single-ply,SBD,M,
Boys,89.81,10,Emiliano Mendez,Edinburg North,89.68,127.01,81.65,131.54,340.19,Single-ply,SBD,M,
Boys,89.81,11,Adrian Ramirez,La Joya,88.13,81.65,36.29,111.13,229.06,Single-ply,SBD,M,
Boys,89.81,DQ,Tristan Solis,Rio Grande City,89.81,206.38,,,,Single-ply,SBD,M,
Boys,99.79,1,Ryan Garza,Edinburg,94.44,185.97,131.54,176.9,494.42,Single-ply,SBD,M,
Boys,99.79,2,Jose Moreno,Rio Grande City,92.62,192.78,102.06,192.78,487.61,Single-ply,SBD,M,
Boys,99.79,3,Aaron Benavidez,Rio Grande City,95.48,183.7,111.13,183.7,478.54,Single-ply,SBD,M,
Boys,99.79,4,Aydin Torres,Edinburg North,97.43,154.22,102.06,156.49,412.77,Single-ply,SBD,M,
Boys,99.79,5,Demetrio Talamantes,McAllen Rowe,97.11,154.22,83.91,149.69,387.82,Single-ply,SBD,M,
Boys,99.79,6,Randy Garza,Edinburg,94.44,156.49,88.45,138.35,383.29,Single-ply,SBD,M,
Boys,99.79,DQ,Jesus Rios,Rio Grande City,96.12,192.78,97.52,,,Single-ply,SBD,M,
Boys,109.77,1,Abelino Lopez,Rio Grande City Grulla,108.59,238.14,140.61,213.19,591.94,Single-ply,SBD,M,
Boys,109.77,2,Brandon Lopez,Rio Grande City Grulla,106.23,206.38,122.47,185.97,514.83,Single-ply,SBD,M,
Boys,109.77,3,Antonio Zuniga,La Joya,101.92,158.76,81.65,154.22,394.63,Single-ply,SBD,M,
Boys,109.77,4,Rupert Lopez,Edinburg,109.68,149.69,83.91,131.54,365.14,Single-ply,SBD,M,
Boys,109.77,DQ,Alejandro Rodriguez,McAllen Rowe,100.79,147.42,97.52,,,Single-ply,SBD,M,
Boys,124.74,1,Ezekiel Coronado,La Joya,115.53,235.87,124.74,219.99,580.6,Single-ply,SBD,M,
Boys,124.74,2,Gabriel Dougherty,McAllen Rowe,118.3,217.72,154.22,208.65,580.6,Single-ply,SBD,M,
Boys,124.74,3,Benjamin Rios,Rio Grande City Grulla,118.75,226.8,136.08,192.78,555.65,Single-ply,SBD,M,
Boys,124.74,4,Ricardo Flores,Rio Grande City,117.57,224.53,129.27,183.7,537.51,Single-ply,SBD,M,
Boys,124.74,5,Jose Portales,La Joya,123.29,181.44,79.38,142.88,403.7,Single-ply,SBD,M,
Boys,139.71,1,Guadalupe Bazan,Rio Grande City Grulla,131.22,249.48,149.69,215.46,614.62,Single-ply,SBD,M,
Boys,139.71,2,Alejandro Ramon,Edinburg North,127.91,138.35,113.4,163.29,415.04,Single-ply,SBD,M,
Boys,139.71+,1,Leesandro Martinez,Rio Grande City Grulla,153.27,206.38,108.86,174.63,489.88,Single-ply,SBD,M,
