Division,WeightClassKg,Place,Name,Team,BodyweightKg,Best3SquatKg,Best3BenchKg,Best3DeadliftKg,TotalKg,Equipment,Event,Sex
Boys,51.71,1,Cameron Counts,Borger,50.35,106.59,47.63,106.59,260.82,Single-ply,SBD,M
Boys,51.71,2,Lincoln Wise,Bushland,46.72,79.38,49.9,86.18,215.46,Single-ply,SBD,M
Boys,55.79,1,Corbin Byrd,Dalhart,55.7,140.61,79.38,142.88,362.87,Single-ply,SBD,M
Boys,59.87,1,Gilbert Pena,Dumas,57.7,136.08,77.11,147.42,360.61,Single-ply,SBD,M
Boys,59.87,2,Uriel Ibanez,Dumas,59.15,122.47,81.65,145.15,349.27,Single-ply,SBD,M
Boys,59.87,3,Adrian Gill,Plainview,59.87,131.54,72.57,142.88,347,Single-ply,SBD,M
Boys,59.87,4,Ben Pulliam,Panhandle,59.78,113.4,54.43,136.08,303.91,Single-ply,SBD,M
Boys,59.87,DQ,Josh Pavez,Panhandle,58.24,,,,,Single-ply,SBD,M
Boys,59.87,DQ,Damian Mendoza,Dumas,56.34,,,,,Single-ply,SBD,M
Boys,59.87,DQ,Evan Judd,Dumas,59.51,147.42,,,,Single-ply,SBD,M
Boys,67.13,1,Miguel Vasquez,Farwell,65.77,188.24,124.74,192.78,505.76,Single-ply,SBD,M
Boys,67.13,2,Javier Martinez,Dumas,66.13,176.9,92.99,188.24,458.13,Single-ply,SBD,M
Boys,67.13,3,Walker Voyles,Vega,65.86,170.1,81.65,163.29,415.04,Single-ply,SBD,M
Boys,67.13,4,Dillon Cotton,White Deer,65.32,151.95,102.06,158.76,412.77,Single-ply,SBD,M
Boys,67.13,5,Kade Tinsley,Bushland,62.05,151.95,79.38,174.63,405.97,Single-ply,SBD,M
Boys,67.13,6,Danlee Duncan,Quanah,66.41,158.76,77.11,170.1,405.97,Single-ply,SBD,M
Boys,67.13,7,John Chavez,Plainview,66.86,142.88,92.99,167.83,403.7,Single-ply,SBD,M
Boys,67.13,8,Kenny Ramirez #2,Perryton,66.04,151.95,81.65,156.49,390.09,Single-ply,SBD,M
Boys,67.13,9,Carter Neil,Panhandle,65.86,147.42,83.91,156.49,387.82,Single-ply,SBD,M
Boys,67.13,10,Hector Borunda,Dumas,67.13,149.69,81.65,151.95,383.29,Single-ply,SBD,M
Boys,67.13,11,Jeb Skiles,Vega,64.59,149.69,63.5,165.56,378.75,Single-ply,SBD,M
Boys,67.13,12,Uriel Avila,Perryton,66.77,145.15,88.45,145.15,378.75,Single-ply,SBD,M
Boys,67.13,13,Levi Condren,Borger,65.59,136.08,79.38,156.49,371.95,Single-ply,SBD,M
Boys,67.13,14,Ernest Godino,Plainview,60.78,136.08,77.11,145.15,358.34,Single-ply,SBD,M
Boys,67.13,15,Christopher Coffee,Panhandle,66.86,138.35,61.23,156.49,356.07,Single-ply,SBD,M
Boys,67.13,16,Eric McGee,Dumas,64.14,129.27,74.84,147.42,351.53,Single-ply,SBD,M
Boys,67.13,17,Ethan Richardson,Perryton,64.23,136.08,68.04,140.61,344.73,Single-ply,SBD,M
Boys,67.13,18,Erick Leija,Quanah,64.32,120.2,74.84,136.08,331.12,Single-ply,SBD,M
Boys,67.13,DQ,Thane Adams,Panhandle,64.68,149.69,,,,Single-ply,SBD,M
Boys,67.13,DQ,Cito Rodriguez,Dumas,67.13,,,,,Single-ply,SBD,M
Boys,74.84,1,Mario Banos,Perryton,73.66,195.04,108.86,190.51,494.42,Single-ply,SBD,M
Boys,74.84,2,Jayden Shaver,Panhandle,72.94,192.78,117.93,174.63,485.34,Single-ply,SBD,M
Boys,74.84,3,Luis Ramos #1,Dumas,70.58,172.37,95.25,208.65,476.27,Single-ply,SBD,M
Boys,74.84,4,Sebastian Perez,Vega,71.49,181.44,92.99,192.78,467.2,Single-ply,SBD,M
Boys,74.84,5,Faustino Lopez,Plainview,74.12,172.37,104.33,179.17,455.86,Single-ply,SBD,M
Boys,74.84,6,Keagan Knight,Dalhart,74.3,181.44,99.79,172.37,453.59,Single-ply,SBD,M
Boys,74.84,7,Josh Prather,Panhandle,71.12,176.9,86.18,154.22,417.3,Single-ply,SBD,M
Boys,74.84,8,Damien Gonzalez,Perryton,71.58,165.56,92.99,167.83,426.38,Single-ply,SBD,M
Boys,74.84,9,Eric Soto,Plainview,67.95,145.15,95.25,165.56,405.97,Single-ply,SBD,M
Boys,74.84,10,Timmothy Dettle,Dalhart,72.94,145.15,95.25,158.76,399.16,Single-ply,SBD,M
Boys,74.84,11,Colton Purvines,Panhandle,70.94,120.2,86.18,136.08,342.46,Single-ply,SBD,M
Boys,74.84,12,Alex Clements,Borger,71.58,111.13,61.23,136.08,308.44,Single-ply,SBD,M
Boys,74.84,DQ,Jonathan Chavira,Dumas,74.84,,,,,Single-ply,SBD,M
Boys,74.84,DQ,Jamie Velazquez,Panhandle,74.84,,,,,Single-ply,SBD,M
Boys,74.84,DQ,Luis Olivas,Dumas,74.84,,,,,Single-ply,SBD,M
Boys,74.84,DQ,Jordan Conde,Dumas,73.48,,,,,Single-ply,SBD,M
Boys,82.1,1,Robert Herndon,Perryton,81.56,249.48,140.61,238.14,628.23,Single-ply,SBD,M
Boys,82.1,2,Usbaldo Zarate,Dalhart,78.02,197.31,113.4,192.78,503.49,Single-ply,SBD,M
Boys,82.1,3,Anthony Aguilar,Dalhart,81.28,185.97,117.93,199.58,503.49,Single-ply,SBD,M
Boys,82.1,4,Danny Hillyer,Borger,82.01,172.37,115.67,204.12,492.15,Single-ply,SBD,M
Boys,82.1,5,Logon Terell,Bushland,79.47,156.49,102.06,210.92,469.47,Single-ply,SBD,M
Boys,82.1,6,Carson Smith,Dalhart,81.19,176.9,115.67,174.63,467.2,Single-ply,SBD,M
Boys,82.1,7,Tru Gibson,Bushland,79.38,158.76,83.91,167.83,410.5,Single-ply,SBD,M
Boys,82.1,8,Jordyn Vasquez,Plainview,77.38,158.76,88.45,142.88,390.09,Single-ply,SBD,M
Boys,82.1,9,Tony Segura,Panhandle,79.2,129.27,56.7,142.88,328.85,Single-ply,SBD,M
Boys,82.1,10,Josue Flores,Borger,78.47,102.06,61.23,142.88,306.17,Single-ply,SBD,M
Boys,89.81,1,Mason Lowman,Borger,89.27,197.31,124.74,219.99,542.04,Single-ply,SBD,M
Boys,89.81,2,Preston Love,Bushland,87.27,195.04,106.59,188.24,489.88,Single-ply,SBD,M
Boys,89.81,3,Gael Davila,Dumas,87.91,158.76,97.52,172.37,428.64,Single-ply,SBD,M
Boys,89.81,4,Joel Chavez #2,Plainview,83.19,161.03,90.72,156.49,408.23,Single-ply,SBD,M
Boys,89.81,5,Trip Walter,Quanah,84.1,145.15,95.25,68.04,308.44,Single-ply,SBD,M
Boys,89.81,DQ,Trey Gomez,Quanah,86.73,,,,,Single-ply,SBD,M
Boys,99.79,1,Uriel Hernandez,Perryton,98.97,285.76,181.44,254.01,721.21,Single-ply,SBD,M
Boys,99.79,2,Ryan Ortiz,Dalhart,94.8,267.62,129.27,208.65,605.55,Single-ply,SBD,M
Boys,99.79,3,Jay Ramirez,Perryton,97.89,215.46,117.93,204.12,537.51,Single-ply,SBD,M
Boys,99.79,4,Andrew Rodriguez,Bushland,96.16,190.51,115.67,195.04,501.22,Single-ply,SBD,M
Boys,99.79,5,Estaban Moralez,Dumas,94.35,181.44,115.67,181.44,478.54,Single-ply,SBD,M
Boys,99.79,6,Luke Terell,Bushland,93.26,158.76,113.4,195.04,467.2,Single-ply,SBD,M
Boys,99.79,7,Karlo Sanchez,Dumas,97.52,188.24,90.72,174.63,453.59,Single-ply,SBD,M
Boys,99.79,8,Hunter Welch,Plainview,97.79,176.9,86.18,158.76,421.84,Single-ply,SBD,M
Boys,99.79,9,Colby Jackson,Quanah,98.43,127.01,65.77,147.42,340.19,Single-ply,SBD,M
Boys,99.79,DQ,Alexander Wade,Panhandle,95.35,,,,,Single-ply,SBD,M
Boys,109.77,1,Aaron Longoria,Quanah,109.68,247.21,142.88,204.12,594.21,Single-ply,SBD,M
Boys,109.77,2,Brendon Eminger,Canyon,103.24,249.48,108.86,204.12,562.45,Single-ply,SBD,M
Boys,109.77,3,Ubaldo Tarango,Perryton,108.41,217.72,131.54,208.65,557.92,Single-ply,SBD,M
Boys,109.77,4,Chris Delatorre,Dumas,101.6,199.58,104.33,208.65,512.56,Single-ply,SBD,M
Boys,109.77,5,Miguel Celis,Perryton,107.05,204.12,115.67,190.51,510.29,Single-ply,SBD,M
Boys,109.77,6,Lorenzo Valdez,Borger,106.78,190.51,111.13,192.78,494.42,Single-ply,SBD,M
Boys,109.77,7,Daniel Byers,Panhandle,108.14,192.78,111.13,170.1,474,Single-ply,SBD,M
Boys,109.77,8,Jose Rosales,Perryton,104.78,167.83,120.2,181.44,469.47,Single-ply,SBD,M
Boys,109.77,9,Jaziel Torres,Borger,102.33,188.24,117.93,158.76,464.93,Single-ply,SBD,M
Boys,109.77,DQ,Garrett Barnett,Panhandle,109.77,,,,,Single-ply,SBD,M
Boys,124.74,1,Frank Gallegos,Dalhart,116.75,238.14,190.51,210.92,639.57,Single-ply,SBD,M
Boys,124.74,2,Rey Heredia,Borger,120.2,254.01,138.35,206.38,598.74,Single-ply,SBD,M
Boys,124.74,3,Cooper Lackie,Dalhart,121.93,226.8,151.95,208.65,587.4,Single-ply,SBD,M
Boys,124.74,4,Omar Hernandez #1,Dumas,117.75,226.8,131.54,204.12,562.45,Single-ply,SBD,M
Boys,124.74,5,Cody Mays,Vega,111.13,226.8,106.59,213.19,546.58,Single-ply,SBD,M
Boys,124.74,6,Nathaniel Traylor,Dumas,118.57,231.33,124.74,188.24,544.31,Single-ply,SBD,M
Boys,124.74,7,Brendan Herring,Dalhart,120.66,226.8,129.27,181.44,537.51,Single-ply,SBD,M
Boys,124.74,8,Cole Bacon,Panhandle,119.29,199.58,124.74,192.78,517.1,Single-ply,SBD,M
Boys,124.74,9,Christian Garza,Plainview,123.74,192.78,127.01,195.04,514.83,Single-ply,SBD,M
Boys,124.74,10,Guss Jameson,Dalhart,114.31,206.38,108.86,170.1,485.34,Single-ply,SBD,M
Boys,124.74,11,Jackson Kuehler,Panhandle,123.65,133.81,92.99,142.88,369.68,Single-ply,SBD,M
Boys,124.74+,1,Tytus Williams,Borger,132.45,272.16,147.42,249.48,669.05,Single-ply,SBD,M
Boys,124.74+,2,Eli Hernandez,Dumas,125.1,238.14,136.08,226.8,601.01,Single-ply,SBD,M
Boys,124.74+,3,Andy Pena,Perryton,126.73,217.72,142.88,190.51,551.11,Single-ply,SBD,M
Boys,124.74+,4,John Davis #10,Bushland,138.53,156.49,79.38,133.81,369.68,Single-ply,SBD,M
