Division,WeightClassKg,Place,Name,Team,BodyweightKg,Best3SquatKg,Best3BenchKg,Best3DeadliftKg,TotalKg,Equipment,Event,Sex,BirthDate
Boys,51.71,1,Imanol Mendez,Louise,49.99,136.08,65.77,151.95,353.8,Single-ply,SBD,M,
Boys,51.71,2,Cam Graves,Palacios,48.08,99.79,70.31,124.74,294.84,Single-ply,SBD,M,
Boys,51.71,3,Curtis Ledwig,Ganado,50.8,97.52,45.36,120.2,263.08,Single-ply,SBD,M,
Boys,51.71,4,Jacob Miller,Louise,51.62,68.04,70.31,111.13,249.48,Single-ply,SBD,M,
Boys,55.79,1,Alex Le,Palacios,51.98,142.88,83.91,151.95,378.75,Single-ply,SBD,M,
Boys,55.79,2,Canaan Allen,Bay City,51.8,102.06,61.23,124.74,288.03,Single-ply,SBD,M,
Boys,55.79,DQ,Felix Rodriguez,Bay City,55.79,,,,,Single-ply,SBD,M,
Boys,55.79,DQ,Noah Whittley,Edna,55.52,,,,,Single-ply,SBD,M,
Boys,55.79,DQ,Landon Trevino,Louise,55.02,,,,,Single-ply,SBD,M,
Boys,59.87,1,Jordan Garcia,El Maton Tidehaven,57.42,154.22,83.91,170.1,408.23,Single-ply,SBD,M,
Boys,59.87,2,Ronnie Kimball,Bay City,59.33,113.4,56.7,129.27,299.37,Single-ply,SBD,M,
Boys,59.87,3,Adam Rabalias,Victoria St. Joseph,59.33,92.99,49.9,120.2,263.08,Single-ply,SBD,M,
Boys,59.87,DQ,Tanner Veselka,Vanderbilt Industrial,59.87,131.54,,,,Single-ply,SBD,M,
Boys,67.13,1,Jacob Arguijo,Palacios,65.32,188.24,104.33,181.44,474,Single-ply,SBD,M,
Boys,67.13,2,Manny Calderon,Ganado,64.86,181.44,104.33,174.63,460.4,Single-ply,SBD,M,
Boys,67.13,3,Bryce Duke,Palacios,64.95,149.69,88.45,172.37,410.5,Single-ply,SBD,M,
Boys,67.13,4,Thomas Garcia,Palacios,64.41,151.95,83.91,165.56,401.43,Single-ply,SBD,M,
Boys,67.13,5,Cain Hayden,Ganado,65.14,154.22,86.18,154.22,394.63,Single-ply,SBD,M,
Boys,67.13,6,Chase Macek,El Campo,63.23,154.22,111.13,127.01,392.36,Single-ply,SBD,M,
Boys,67.13,7,Trey Drozd,Louise,66.13,138.35,92.99,161.03,392.36,Single-ply,SBD,M,
Boys,67.13,8,Alex Benavides,Vanderbilt Industrial,61.96,145.15,77.11,158.76,381.02,Single-ply,SBD,M,
Boys,67.13,9,Gavin DeLaGarza,Victoria St. Joseph,66.68,131.54,70.31,124.74,326.59,Single-ply,SBD,M,
Boys,67.13,10,Jorge Anguiano,El Campo,64.14,97.52,70.31,129.27,297.1,Single-ply,SBD,M,
Boys,67.13,DQ,Luke Bures,Ganado,67.13,,,,,Single-ply,SBD,M,
Boys,67.13,DQ,Blayke Yeager,Louise,61.87,138.35,,,,Single-ply,SBD,M,
Boys,67.13,DQ,Matt Sandoval,Palacios,65.5,120.2,,,,Single-ply,SBD,M,
Boys,74.84,1,John Sample,Edna,73.84,215.46,115.67,195.04,526.17,Single-ply,SBD,M,
Boys,74.84,2,Alexis Martinez #14,Ganado,74.21,190.51,117.93,183.7,492.15,Single-ply,SBD,M,
Boys,74.84,3,Chance McRae,Palacios,72.57,170.1,127.01,161.03,458.13,Single-ply,SBD,M,
Boys,74.84,4,Jacob Martinez,El Maton Tidehaven,73.94,106.59,104.33,174.63,385.55,Single-ply,SBD,M,
Boys,74.84,5,Luke Montague,El Maton Tidehaven,72.67,129.27,106.59,136.08,371.95,Single-ply,SBD,M,
Boys,74.84,6,Joseluis Cisneros,Palacios,68.31,142.88,68.04,158.76,369.68,Single-ply,SBD,M,
Boys,74.84,7,Frank O'Connor,El Campo,72.21,140.61,79.38,147.42,367.41,Single-ply,SBD,M,
Boys,74.84,8,Benjamin Blanco,Louise,67.86,97.52,92.99,170.1,360.61,Single-ply,SBD,M,
Boys,74.84,9,Alejandro Balderas,Louise,68.04,102.06,63.5,142.88,308.44,Single-ply,SBD,M,
Boys,74.84,DQ,Karson Van Pelt,Vanderbilt Industrial,74.84,,,,,Single-ply,SBD,M,
Boys,82.1,1,Jacob Rosales,Edna,80.47,206.38,136.08,219.99,562.45,Single-ply,SBD,M,
Boys,82.1,2,Joseph Tate,El Maton Tidehaven,81.19,188.24,136.08,181.44,505.76,Single-ply,SBD,M,
Boys,82.1,3,Haydn Nieto,Palacios,78.38,163.29,106.59,183.7,453.59,Single-ply,SBD,M,
Boys,82.1,4,Aiden Garcia,Edna,75.84,142.88,111.13,183.7,437.72,Single-ply,SBD,M,
Boys,82.1,5,Tristan Harper,El Campo,81.19,165.56,106.59,165.56,437.72,Single-ply,SBD,M,
Boys,82.1,6,Carter Kovar,Ganado,79.47,165.56,92.99,167.83,426.38,Single-ply,SBD,M,
Boys,82.1,7,Thomas Copeland,Victoria St. Joseph,79.02,165.56,92.99,165.56,424.11,Single-ply,SBD,M,
Boys,82.1,8,Fisher Kessler,El Maton Tidehaven,81.28,138.35,92.99,142.88,374.21,Single-ply,SBD,M,
Boys,82.1,9,Raymond Rodriguez,El Campo,79.92,117.93,106.59,147.42,371.95,Single-ply,SBD,M,
Boys,82.1,10,Josh Turner,Vanderbilt Industrial,76.2,138.35,79.38,145.15,362.87,Single-ply,SBD,M,
Boys,82.1,11,Marucio Hurtado,Palacios,81.83,136.08,61.23,149.69,347,Single-ply,SBD,M,
Boys,82.1,12,Vicente Cortez,Edna,78.83,136.08,63.5,145.15,344.73,Single-ply,SBD,M,
Boys,82.1,13,Edgar Perry,Edna,78.47,136.08,63.5,142.88,342.46,Single-ply,SBD,M,
Boys,82.1,14,Lebron Garcia,El Maton Tidehaven,80.2,102.06,83.91,156.49,342.46,Single-ply,SBD,M,
Boys,82.1,15,Brandon Garcia,Bay City,80.2,117.93,70.31,154.22,342.46,Single-ply,SBD,M,
Boys,89.81,1,Fidel Chavez,Palacios,82.92,215.46,133.81,206.38,555.65,Single-ply,SBD,M,
Boys,89.81,2,Jesse Cornish,Vanderbilt Industrial,86.36,217.72,127.01,185.97,530.7,Single-ply,SBD,M,
Boys,89.81,3,Hersamo Guerrero,Palacios,86.73,183.7,120.2,185.97,489.88,Single-ply,SBD,M,
Boys,89.81,4,Dalton Bohannon,Edna,84.1,183.7,106.59,197.31,487.61,Single-ply,SBD,M,
Boys,89.81,5,Joshua Gomez,Louise,85.73,129.27,104.33,158.76,392.36,Single-ply,SBD,M,
Boys,89.81,6,David Almeda,Ganado,87.09,149.69,86.18,142.88,378.75,Single-ply,SBD,M,
Boys,89.81,DQ,Ty Juenk,El Maton Tidehaven,89.81,,,,,Single-ply,SBD,M,
Boys,99.79,1,Daniel Gaona III,Louise,93.26,256.28,149.69,226.8,632.76,Single-ply,SBD,M,
Boys,99.79,2,Caden Bradford,Bay City,91.99,240.4,154.22,210.92,605.55,Single-ply,SBD,M,
Boys,99.79,3,Glenn Ihde,Bay City,89.99,197.31,95.25,197.31,489.88,Single-ply,SBD,M,
Boys,99.79,4,Ethan Resendez,Louise,98.52,183.7,99.79,201.85,485.34,Single-ply,SBD,M,
Boys,99.79,5,Sean Sneath,El Maton Tidehaven,93.53,183.7,113.4,183.7,480.81,Single-ply,SBD,M,
Boys,99.79,6,Dylan Vu,Palacios,97.34,183.7,106.59,183.7,474,Single-ply,SBD,M,
Boys,99.79,7,Bryan Resendiz,El Maton Tidehaven,96.98,167.83,111.13,181.44,460.4,Single-ply,SBD,M,
Boys,99.79,8,Jaime Leal,El Campo,91.26,138.35,106.59,147.42,392.36,Single-ply,SBD,M,
Boys,99.79,9,Ricardo Garcia,Bay City,91.9,117.93,81.65,158.76,358.34,Single-ply,SBD,M,
Boys,99.79,DQ,Clyde Griffith,El Maton Tidehaven,99.79,,,,,Single-ply,SBD,M,
Boys,99.79,DQ,Kyle Schroeder,Vanderbilt Industrial,99.79,,,,,Single-ply,SBD,M,
Boys,99.79,DQ,Fernando Cortez,Edna,93.35,,,,,Single-ply,SBD,M,
Boys,99.79,DQ,Aaron Taylor,Victoria St. Joseph,93.98,,,,,Single-ply,SBD,M,
Boys,109.77,1,Xavier Perez,Palacios,104.05,265.35,170.1,235.87,671.32,Single-ply,SBD,M,
Boys,109.77,2,Devin Johnson,Edna,107.23,242.67,161.03,233.6,637.3,Single-ply,SBD,M,
Boys,109.77,3,Wyatt Lee,El Maton Tidehaven,109.13,219.99,156.49,210.92,587.4,Single-ply,SBD,M,
Boys,109.77,4,Hayden Land,Victoria St. Joseph,107.32,229.06,117.93,226.8,573.79,Single-ply,SBD,M,
Boys,109.77,5,Jace Kitchens,Vanderbilt Industrial,107.86,222.26,127.01,199.58,548.85,Single-ply,SBD,M,
Boys,109.77,6,Clarence Farrow,El Campo,99.88,204.12,133.81,190.51,528.44,Single-ply,SBD,M,
Boys,109.77,7,Nicholas Debo,El Campo,104.51,156.49,133.81,183.7,474,Single-ply,SBD,M,
Boys,109.77,8,Carson Brooks,Palacios,107.05,156.49,120.2,185.97,462.66,Single-ply,SBD,M,
Boys,109.77,9,Ezequiel Huitzil,Vanderbilt Industrial,103.87,185.97,90.72,165.56,442.25,Single-ply,SBD,M,
Boys,109.77,10,Alex Burciaga,Bay City,103.15,156.49,90.72,165.56,412.77,Single-ply,SBD,M,
Boys,109.77,DQ,Sean Cotton,El Maton Tidehaven,101.15,,,,,Single-ply,SBD,M,
Boys,124.74,1,Jerry Johnson,El Maton Tidehaven,123.56,317.51,188.24,265.35,771.11,Single-ply,SBD,M,
Boys,124.74,2,Christopher Vasquez,Louise,123.01,283.5,124.74,240.4,648.64,Single-ply,SBD,M,
Boys,124.74,3,Andrew Galvan,El Maton Tidehaven,121.02,238.14,145.15,192.78,576.06,Single-ply,SBD,M,
Boys,124.74,4,Eric Garza,Edna,123.83,226.8,161.03,183.7,571.53,Single-ply,SBD,M,
Boys,124.74,5,Kohl Powell,Vanderbilt Industrial,111.58,204.12,108.86,208.65,521.63,Single-ply,SBD,M,
Boys,124.74,6,Vincent Barajas,Ganado,110.86,165.56,86.18,170.1,421.84,Single-ply,SBD,M,
Boys,124.74,7,Pete Galvan,Louise,123.92,158.76,92.99,170.1,421.84,Single-ply,SBD,M,
Boys,124.74,8,Marcus Ontiveros,El Campo,116.03,151.95,102.06,163.29,417.3,Single-ply,SBD,M,
Boys,124.74,9,Leland Aguilar,Bay City,120.47,158.76,86.18,163.29,408.23,Single-ply,SBD,M,
Boys,124.74,10,Michael Sosa,El Campo,112.85,147.42,99.79,145.15,392.36,Single-ply,SBD,M,
Boys,124.74,11,Noah Serrano,Victoria St. Joseph,120.2,131.54,79.38,158.76,369.68,Single-ply,SBD,M,
Boys,124.74,DQ,Kerry North,El Campo,122.02,254.01,158.76,,,Single-ply,SBD,M,
Boys,124.74,DQ,Juan Leal,El Campo,117.03,,,,,Single-ply,SBD,M,
Boys,139.71,1,Dailynn Hernandez,Bay City,131.54,263.08,147.42,199.58,610.08,Single-ply,SBD,M,
Boys,139.71,2,Isaac Allen,Bay City,128.91,210.92,136.08,176.9,523.9,Single-ply,SBD,M,
