Division,WeightClassKg,Place,Name,Team,BodyweightKg,Best3SquatKg,Best3BenchKg,Best3DeadliftKg,TotalKg,Equipment,Event,Sex,BirthDate
Boys,51.71,1,Alfred Garcia,San Antonio Southwest,51.66,154.22,86.18,158.76,399.16,Single-ply,SBD,M,
Boys,55.79,1,Joseph Salazar,Cotulla,55.38,158.76,106.59,181.44,446.79,Single-ply,SBD,M,
Boys,55.79,2,Angelo Legaspe,San Antonio Cole,55.79,151.95,88.45,147.42,387.82,Single-ply,SBD,M,
Boys,55.79,3,Christopher Cancino,San Antonio Cole,54.07,124.74,92.99,131.54,349.27,Single-ply,SBD,M,
Boys,55.79,4,Isreal Andrade,Lytle,55.02,102.06,65.77,136.08,303.91,Single-ply,SBD,M,
Boys,59.87,1,Grant Griffin,San Antonio Southwest,56.56,111.13,74.84,120.2,306.17,Single-ply,SBD,M,
Boys,59.87,2,Devin McDole,Natalia,58.92,102.06,56.7,127.01,285.76,Single-ply,SBD,M,
Boys,67.13,1,Jacob Garcia,Cotulla,66.77,195.04,136.08,201.85,532.97,Single-ply,SBD,M,
Boys,67.13,2,Jayden Cruz,San Antonio Southwest,66.68,176.9,102.06,161.03,439.98,Single-ply,SBD,M,
Boys,67.13,3,Tiago Ogden,San Antonio Cole,67.13,142.88,111.13,183.7,437.72,Single-ply,SBD,M,
Boys,67.13,4,Jose Gonzalez,Cotulla,62.14,154.22,81.65,165.56,401.43,Single-ply,SBD,M,
Boys,67.13,5,Luke Estrada,Lytle,65.27,142.88,97.52,158.76,399.16,Single-ply,SBD,M,
Boys,67.13,6,Anthony Hernandez,Cotulla,66.45,117.93,92.99,142.88,353.8,Single-ply,SBD,M,
Boys,67.13,7,Sergio Gonzalez,San Antonio Southwest,63.78,124.74,79.38,142.88,347,Single-ply,SBD,M,
Boys,67.13,8,Jansel Rodriguez,Cotulla,61.78,90.72,65.77,111.13,267.62,Single-ply,SBD,M,
Boys,67.13,DQ,Amadeus Trejo-Perez,Lytle,64.32,156.49,83.91,,,Single-ply,SBD,M,
Boys,74.84,1,Adrian Vasquez,Natalia,74.71,240.4,120.2,240.4,601.01,Single-ply,SBD,M,
Boys,74.84,2,David Arreguin,Lytle,73.89,163.29,108.86,174.63,446.79,Single-ply,SBD,M,
Boys,74.84,3,Donovan De Los Santos,San Antonio Southwest,72.71,163.29,95.25,161.03,419.57,Single-ply,SBD,M,
Boys,74.84,4,Sergio Garcia,San Antonio Southwest,68.76,151.95,115.67,149.69,417.3,Single-ply,SBD,M,
Boys,74.84,5,Rafael Rivero,San Antonio Cole,68.81,165.56,88.45,161.03,415.04,Single-ply,SBD,M,
Boys,74.84,6,Tristan Quintanilla,San Antonio Southwest,67.99,161.03,74.84,170.1,405.97,Single-ply,SBD,M,
Boys,74.84,7,Marcus Ramos,Natalia,74.84,149.69,70.31,176.9,396.89,Single-ply,SBD,M,
Boys,74.84,8,Patrick Logan,San Antonio Cole,73.48,142.88,83.91,165.56,392.36,Single-ply,SBD,M,
Boys,74.84,9,Samuel Lopez,San Antonio Cole,73.98,136.08,74.84,142.88,353.8,Single-ply,SBD,M,
Boys,74.84,10,Zachary Sanchez,San Antonio Cole,70.85,127.01,63.5,142.88,333.39,Single-ply,SBD,M,
Boys,82.1,1,Jason Vega,Lytle,80.92,226.8,145.15,240.4,612.35,Single-ply,SBD,M,
Boys,82.1,2,Sasar Garcia,Cotulla,77.97,176.9,102.06,190.51,469.47,Single-ply,SBD,M,
Boys,82.1,3,Jacob Sambrano,Cotulla,76.38,142.88,102.06,145.15,390.09,Single-ply,SBD,M,
Boys,82.1,4,Nathaniel Callahan,San Antonio Cole,78.74,104.33,52.16,133.81,290.3,Single-ply,SBD,M,
Boys,82.1,DQ,Adan Aldaco,Cotulla,82.1,,,,,Single-ply,SBD,M,
Boys,89.81,1,Ryan Pena,San Antonio Southwest,83.1,265.35,154.22,258.55,678.12,Single-ply,SBD,M,
Boys,89.81,2,Hudson McKendrick,San Antonio Southwest,83.51,176.9,111.13,179.17,467.2,Single-ply,SBD,M,
Boys,89.81,3,Caleb Glaser,San Antonio Cole,83.51,108.86,58.97,131.54,299.37,Single-ply,SBD,M,
Boys,99.79,1,Gaylen Garcia,Natalia,92.58,258.55,145.15,240.4,644.1,Single-ply,SBD,M,
Boys,99.79,2,Austin Dubose,Lytle,99.79,226.8,142.88,217.72,587.4,Single-ply,SBD,M,
Boys,99.79,3,Rudy Velasquez,Cotulla,91.9,188.24,145.15,215.46,548.85,Single-ply,SBD,M,
Boys,99.79,4,Hipolito Salazar,San Antonio Southwest,90.9,208.65,122.47,213.19,544.31,Single-ply,SBD,M,
Boys,99.79,5,Luke Glaser,San Antonio Cole,96.52,190.51,102.06,192.78,485.34,Single-ply,SBD,M,
Boys,99.79,6,Chase Howell,San Antonio Cole,94.03,174.63,106.59,199.58,480.81,Single-ply,SBD,M,
Boys,99.79,7,Robert Ayala,Cotulla,98.2,192.78,102.06,183.7,478.54,Single-ply,SBD,M,
Boys,99.79,8,Leo Hernandez-Garza,San Antonio Cole,99.79,170.1,117.93,190.51,478.54,Single-ply,SBD,M,
Boys,99.79,9,Kehinde Atunrase,San Antonio Cole,92.9,181.44,99.79,190.51,471.74,Single-ply,SBD,M,
Boys,99.79,10,Tristan Dennie,San Antonio Southwest,92.94,181.44,111.13,156.49,449.06,Single-ply,SBD,M,
Boys,99.79,11,Robert Rosas,San Antonio Southwest,90.49,165.56,102.06,179.17,446.79,Single-ply,SBD,M,
Boys,99.79,12,Jayson Clinton,San Antonio Cole,99.79,158.76,102.06,176.9,437.72,Single-ply,SBD,M,
Boys,99.79,13,Elijah Will,San Antonio Cole,94.44,156.49,95.25,170.1,421.84,Single-ply,SBD,M,
Boys,99.79,14,Erasmo Ramirez,Cotulla,99.47,142.88,108.86,156.49,408.23,Single-ply,SBD,M,
Boys,99.79,15,Thomas Garcia,Cotulla,95.35,104.33,74.84,142.88,322.05,Single-ply,SBD,M,
Boys,109.77,1,Clark Griffin,San Antonio Southwest,100.97,276.69,156.49,260.82,694,Single-ply,SBD,M,
Boys,124.74,1,Xavier Laque,Natalia,124.65,185.97,117.93,192.78,496.68,Single-ply,SBD,M,
Boys,124.74,2,Jeremy Austin,San Antonio Cole,117.34,113.4,68.04,136.08,317.51,Single-ply,SBD,M,
Boys,139.71,1,Kaleb Linares,Cotulla,126.46,294.84,181.44,233.6,709.87,Single-ply,SBD,M,
Boys,139.71,2,Michael Leaming,San Antonio Southwest,126.28,172.37,104.33,183.7,460.4,Single-ply,SBD,M,
Boys,139.71,DQ,Adam Delgado,San Antonio Southwest,134.9,201.85,108.86,,,Single-ply,SBD,M,
Boys,139.71+,1,Dustin Cruz,Natalia,141.02,226.8,117.93,217.72,562.45,Single-ply,SBD,M,
Boys,139.71+,2,Victor Moreno,Cotulla,157.12,199.58,147.42,206.38,553.38,Single-ply,SBD,M,
