Division,WeightClassKg,Place,Name,Team,BodyweightKg,Best3SquatKg,Best3BenchKg,Best3DeadliftKg,TotalKg,Equipment,Event,Sex,BirthDate
Boys,51.71,1,Tye Warncke,East Bernard,50.62,95.25,45.36,104.33,244.94,Single-ply,SBD,M,
Boys,51.71,2,Craig Lanier,East Bernard,47.17,74.84,43.09,61.23,179.17,Single-ply,SBD,M,
Boys,55.79,1,Cade Janecek,East Bernard,53.98,120.2,74.84,142.88,337.93,Single-ply,SBD,M,
Boys,59.87,1,Diego Manteca,Waller,59.69,158.76,83.91,142.88,385.55,Single-ply,SBD,M,
Boys,67.13,1,Kaleb Rivera,East Bernard,66.13,192.78,111.13,195.04,498.95,Single-ply,SBD,M,
Boys,67.13,2,Johnny Martinez,East Bernard,63.14,195.04,115.67,172.37,483.08,Single-ply,SBD,M,
Boys,67.13,3,Troy Hubbard,Waller,61.69,138.35,79.38,140.61,358.34,Single-ply,SBD,M,
Boys,74.84,1,Jackson Morrow,East Bernard,72.39,174.63,92.99,183.7,451.32,Single-ply,SBD,M,
Boys,74.84,2,Miguel Garcia-Garcia,Waller,72.03,170.1,115.67,161.03,446.79,Single-ply,SBD,M,
Boys,82.1,1,Dj Losak,East Bernard,80.65,219.99,142.88,195.04,557.92,Single-ply,SBD,M,
Boys,82.1,2,Zach Phipps,Waller,80.92,210.92,127.01,195.04,532.97,Single-ply,SBD,M,
Boys,82.1,3,Tayshawn Wilson,Katy Mayde Creek,75.93,176.9,129.27,195.04,501.22,Single-ply,SBD,M,
Boys,82.1,4,Jacob Dains,Waller,80.1,181.44,102.06,192.78,476.27,Single-ply,SBD,M,
Boys,82.1,5,Joshua Cadieux,Waller,75.3,149.69,83.91,158.76,392.36,Single-ply,SBD,M,
Boys,89.81,1,J Galvan,East Bernard,83.55,235.87,170.1,231.33,637.3,Single-ply,SBD,M,
Boys,89.81,2,Lance Heimann,East Bernard,88,206.38,111.13,204.12,521.63,Single-ply,SBD,M,
Boys,89.81,3,Marvin Bodden,Katy Mayde Creek,89.81,197.31,106.59,204.12,508.02,Single-ply,SBD,M,
Boys,89.81,4,Donovan McKey,Katy Mayde Creek,89.27,181.44,106.59,213.19,501.22,Single-ply,SBD,M,
Boys,89.81,5,Ryan Garcia,Waller,88.9,183.7,122.47,165.56,471.74,Single-ply,SBD,M,
Boys,89.81,6,Kolby Karsteter,Waller,87.63,172.37,104.33,154.22,430.91,Single-ply,SBD,M,
Boys,89.81,7,Joshua Simpson,Waller,87.91,165.56,90.72,167.83,424.11,Single-ply,SBD,M,
Boys,99.79,1,Erik Cornejo,Waller,93.53,188.24,113.4,188.24,489.88,Single-ply,SBD,M,
Boys,99.79,2,Nick Johnson,Katy Mayde Creek,91.99,163.29,102.06,156.49,421.84,Single-ply,SBD,M,
Boys,99.79,3,Korbon Hudgins,East Bernard,91.63,204.12,2.27,190.51,396.89,Single-ply,SBD,M,
Boys,99.79,4,Kenta Poole,Waller,98.88,142.88,102.06,149.69,394.63,Single-ply,SBD,M,
Boys,109.77,1,Gerrado Herrera,Katy Mayde Creek,105.87,208.65,145.15,183.7,537.51,Single-ply,SBD,M,
Boys,109.77,2,Chiddi Adighibe,Katy Mayde Creek,105.6,226.8,115.67,174.63,517.1,Single-ply,SBD,M,
Boys,124.74,1,Alexis Mendez,Katy Mayde Creek,124.01,183.7,111.13,136.08,430.91,Single-ply,SBD,M,
Boys,139.71,1,Arturo Fuentes,Katy Mayde Creek,132.54,204.12,108.86,138.35,451.32,Single-ply,SBD,M,
