Division,WeightClassKg,Place,Name,Team,BodyweightKg,Best3SquatKg,Best3BenchKg,Best3DeadliftKg,TotalKg,Equipment,Event,Sex,BirthDate
Boys,51.71,1,Juan Pena,Edinburg Economedes,49.17,113.4,92.99,151.95,358.34,Single-ply,SBD,M,
Boys,51.71,2,Joe Cruz,Edinburg North,50.98,106.59,72.57,142.88,322.05,Single-ply,SBD,M,
Boys,55.79,1,Josh Perez,Los Fresnos,55.16,163.29,92.99,170.1,426.38,Single-ply,SBD,M,
Boys,55.79,2,Matthew Mancias,Brownsville Hanna,55.61,145.15,95.25,185.97,426.38,Single-ply,SBD,M,
Boys,55.79,3,Joseph Ramirez,Brownsville Veterans Memorial,54.98,158.76,90.72,167.83,417.3,Single-ply,SBD,M,
Boys,55.79,4,Joe Sanchez,Brownsville Veterans Memorial,55.79,113.4,77.11,142.88,333.39,Single-ply,SBD,M,
Boys,55.79,5,Jaime Salinas,Edinburg North,55.16,111.13,79.38,133.81,324.32,Single-ply,SBD,M,
Boys,59.87,1,Anthony Ayala,Brownsville Veterans Memorial,59.51,206.38,136.08,181.44,523.9,Single-ply,SBD,M,
Boys,59.87,2,Isaiah Loya,Brownsville Hanna,58.42,142.88,102.06,183.7,428.64,Single-ply,SBD,M,
Boys,59.87,3,Ethan Vidal,Brownsville Hanna,58.42,147.42,108.86,165.56,421.84,Single-ply,SBD,M,
Boys,59.87,4,Sean Carpenter,Edinburg North,59.69,133.81,92.99,156.49,383.29,Single-ply,SBD,M,
Boys,59.87,5,Jacob Faz,Edinburg North,59.87,131.54,86.18,138.35,356.07,Single-ply,SBD,M,
Boys,59.87,6,Alejandro Garza,Brownsville Pace,56.52,108.86,79.38,111.13,299.37,Single-ply,SBD,M,
Boys,59.87,DQ,Carlos Vasquez,Brownsville Hanna,59.87,181.44,,,,Single-ply,SBD,M,
Boys,67.13,1,Gilbert Garcia,Brownsville Hanna,66.59,215.46,120.2,210.92,546.58,Single-ply,SBD,M,
Boys,67.13,2,Valient Rodriguez,Brownsville Pace,67.09,210.92,127.01,185.97,523.9,Single-ply,SBD,M,
Boys,67.13,3,Victor Rodriguez,Los Fresnos,65.5,199.58,131.54,188.24,519.36,Single-ply,SBD,M,
Boys,67.13,4,Christian Gomez,Edinburg North,63.87,183.7,117.93,197.31,498.95,Single-ply,SBD,M,
Boys,67.13,5,Kriz Pena,Brownsville Hanna,66.95,183.7,124.74,183.7,492.15,Single-ply,SBD,M,
Boys,67.13,6,Robert De La Fuente,Los Fresnos,61.96,165.56,111.13,172.37,449.06,Single-ply,SBD,M,
Boys,67.13,7,Anthony Martinez,Edinburg North,65.86,158.76,92.99,176.9,428.64,Single-ply,SBD,M,
Boys,67.13,8,Devin Trevino,Brownsville Hanna,66.22,149.69,90.72,161.03,401.43,Single-ply,SBD,M,
Boys,67.13,9,Max Quintamilla,Brownsville Pace,65.68,102.06,79.38,136.08,317.51,Single-ply,SBD,M,
Boys,74.84,1,Justin Rosas,Brownsville Veterans Memorial,73.57,267.62,147.42,213.19,628.23,Single-ply,SBD,M,
Boys,74.84,2,Edgar Duran,PSJA North,72.67,244.94,136.08,213.19,594.21,Single-ply,SBD,M,
Boys,74.84,3,Luis Sanchez,PSJA North,73.57,215.46,140.61,226.8,582.87,Single-ply,SBD,M,
Boys,74.84,4,Bono Santiesteban,Los Fresnos,72.94,219.99,129.27,226.8,576.06,Single-ply,SBD,M,
Boys,74.84,5,Robert Stone,Brownsville Veterans Memorial,74.39,215.46,129.27,219.99,564.72,Single-ply,SBD,M,
Boys,74.84,6,Jayden Moreno,Los Fresnos,71.58,213.19,108.86,206.38,528.44,Single-ply,SBD,M,
Boys,74.84,7,Oziel Silva,Edinburg North,73.94,174.63,108.86,183.7,467.2,Single-ply,SBD,M,
Boys,74.84,8,Gammaliel Garcia,Edinburg North,70.58,133.81,88.45,154.22,376.48,Single-ply,SBD,M,
Boys,74.84,9,Owen Torres,Brownsville Pace,71.76,136.08,68.04,124.74,328.85,Single-ply,SBD,M,
Boys,74.84,DQ,Moises Zuniga,Brownsville Hanna,74.48,249.48,,,,Single-ply,SBD,M,
Boys,74.84,DQ,Devin Aguilar,Edinburg North,74.03,233.6,151.95,,,Single-ply,SBD,M,
Boys,74.84,DQ,Raul Ramirez,Brownsville Hanna,73.21,204.12,102.06,,,Single-ply,SBD,M,
Boys,82.1,1,Othon Elizondo,Edinburg Economedes,80.47,215.46,120.2,219.99,555.65,Single-ply,SBD,M,
Boys,82.1,2,Nicholas Perez,Brownsville Pace,75.48,201.85,127.01,170.1,498.95,Single-ply,SBD,M,
Boys,82.1,3,Edgardo Duran,PSJA North,79.47,201.85,104.33,183.7,489.88,Single-ply,SBD,M,
Boys,82.1,4,Isaac Moreno,Brownsville Veterans Memorial,77.84,181.44,106.59,195.04,483.08,Single-ply,SBD,M,
Boys,82.1,5,Juan Robledo,Edinburg North,77.56,151.95,104.33,179.17,435.45,Single-ply,SBD,M,
Boys,82.1,DQ,Ethan Soto,PSJA North,78.74,,,,,Single-ply,SBD,M,
Boys,82.1,DQ,Luis Garza,Brownsville Pace,76.29,142.88,,,,Single-ply,SBD,M,
Boys,82.1,DQ,Fabian Carralero,Los Fresnos,79.83,208.65,,,,Single-ply,SBD,M,
Boys,89.81,1,Beto Garcia,Brownsville Hanna,88.18,247.21,129.27,213.19,589.67,Single-ply,SBD,M,
Boys,89.81,2,Jaime Martinez,Brownsville Veterans Memorial,84.46,226.8,127.01,199.58,553.38,Single-ply,SBD,M,
Boys,89.81,3,Eddie Saldivar,Los Fresnos,88.27,204.12,127.01,167.83,498.95,Single-ply,SBD,M,
Boys,89.81,4,Jacob Rosas,Brownsville Veterans Memorial,86.64,192.78,127.01,174.63,494.42,Single-ply,SBD,M,
Boys,89.81,5,Andres Garza,PSJA North,85.46,197.31,115.67,156.49,469.47,Single-ply,SBD,M,
Boys,89.81,6,Omar Nava,Brownsville Pace,89.81,127.01,68.04,117.93,312.98,Single-ply,SBD,M,
Boys,99.79,1,Ricardo Alvarez,Brownsville Pace,94.53,258.55,147.42,195.04,601.01,Single-ply,SBD,M,
Boys,99.79,2,Manuel Reyna,Edinburg Economedes,97.7,240.4,124.74,224.53,589.67,Single-ply,SBD,M,
Boys,99.79,3,Arthur Emerson,Brownsville Pace,94.62,215.46,127.01,190.51,532.97,Single-ply,SBD,M,
Boys,99.79,4,Christian de la Garza,Brownsville Veterans Memorial,91.17,188.24,142.88,174.63,505.76,Single-ply,SBD,M,
Boys,99.79,5,Tomas Mendez,PSJA North,91.72,185.97,127.01,179.17,492.15,Single-ply,SBD,M,
Boys,99.79,6,Aydin Torres,Edinburg North,96.62,188.24,113.4,165.56,467.2,Single-ply,SBD,M,
Boys,109.77,1,Joseph Guerra,Edinburg Economedes,106.87,260.82,170.1,249.48,680.39,Single-ply,SBD,M,
Boys,109.77,2,Bryan Chavez,Brownsville Veterans Memorial,109,235.87,140.61,244.94,621.42,Single-ply,SBD,M,
Boys,109.77,3,Daniel Torres,Los Fresnos,105.96,204.12,138.35,183.7,526.17,Single-ply,SBD,M,
Boys,109.77,DQ,Adaen Sanchez,PSJA North,107.14,292.57,149.69,,,Single-ply,SBD,M,
Boys,109.77,DQ,Isaiah Salinas,Brownsville Pace,108.5,206.38,113.4,,,Single-ply,SBD,M,
Boys,109.77,DQ,Aidan Villanueva #3,Brownsville Hanna,109.41,226.8,124.74,,,Single-ply,SBD,M,
Boys,124.74,1,John Avila,Brownsville Hanna,124.28,294.84,151.95,238.14,684.92,Single-ply,SBD,M,
Boys,124.74,2,Kaleb Loredo,Brownsville Pace,118.84,272.16,140.61,217.72,630.49,Single-ply,SBD,M,
Boys,124.74,3,Avery Breeden,Brownsville Veterans Memorial,114.49,260.82,154.22,190.51,605.55,Single-ply,SBD,M,
Boys,124.74,DQ,Kevin Garcia,Brownsville Pace,115.48,,,,,Single-ply,SBD,M,
Boys,139.71,1,Abisai Tijerina,Edinburg Economedes,131.63,306.17,149.69,249.48,705.34,Single-ply,SBD,M,
Boys,139.71,2,Ray Holloman,Brownsville Veterans Memorial,129.09,297.1,154.22,238.14,689.46,Single-ply,SBD,M,
Boys,139.71,3,Salvador Sanchez,PSJA North,127.46,251.74,158.76,183.7,594.21,Single-ply,SBD,M,
Boys,139.71,4,Jakob de la Rosa,Edinburg Economedes,133.08,249.48,151.95,192.78,594.21,Single-ply,SBD,M,
Boys,139.71,5,Marcus Hernandez,PSJA North,128.28,238.14,154.22,183.7,576.06,Single-ply,SBD,M,
Boys,139.71,DQ,Preston Alvarado,Edinburg Economedes,137.08,306.17,,,,Single-ply,SBD,M,
Boys,139.71+,1,Pedro Martinez,Edinburg Economedes,151.23,283.5,142.88,249.48,675.85,Single-ply,SBD,M,
