Division,WeightClassKg,Place,Name,Team,BodyweightKg,Best3SquatKg,Best3BenchKg,Best3DeadliftKg,TotalKg,Equipment,Event,Sex,BirthDate
Boys,51.71,1,Alejandro Netro,New London West Rusk,49.21,90.72,43.09,102.06,235.87,Single-ply,SBD,M,
Boys,51.71,2,Eric White,Lindale,45.59,65.77,34.02,74.84,174.63,Single-ply,SBD,M,
Boys,55.79,1,Rhett Hutchins,Whitehouse,54.3,167.83,86.18,149.69,403.7,Single-ply,SBD,M,
Boys,55.79,2,Tyrell Gause,Tyler Chapel Hill,54.25,113.4,74.84,113.4,301.64,Single-ply,SBD,M,
Boys,55.79,3,Logan Huerta,Lindale,54.93,90.72,63.5,111.13,265.35,Single-ply,SBD,M,
Boys,59.87,1,Darren Parrish,Troup,57.97,79.38,61.23,92.99,233.6,Single-ply,SBD,M,
Boys,67.13,1,Kaden Mahoney,Troup,66.77,172.37,106.59,170.1,449.06,Single-ply,SBD,M,
Boys,67.13,2,Caiden Lee,Bullard,66.81,170.1,113.4,158.76,442.25,Single-ply,SBD,M,
Boys,67.13,3,Jaborian Cook,Tyler Chapel Hill,67.13,156.49,102.06,170.1,428.64,Single-ply,SBD,M,
Boys,67.13,4,Demarian Sanders,Tyler Chapel Hill,62.28,133.81,102.06,174.63,410.5,Single-ply,SBD,M,
Boys,67.13,5,Jalin Hines,Lindale,64.05,156.49,79.38,170.1,405.97,Single-ply,SBD,M,
Boys,67.13,6,Tanner Keys,Troup,61.33,136.08,83.91,165.56,385.55,Single-ply,SBD,M,
Boys,67.13,7,David Doan,Tyler Chapel Hill,62.82,129.27,77.11,156.49,362.87,Single-ply,SBD,M,
Boys,67.13,8,Ben Frost,Bullard,60.96,142.88,99.79,102.06,344.73,Single-ply,SBD,M,
Boys,67.13,9,Christian Ward,Arp,61.14,120.2,70.31,111.13,301.64,Single-ply,SBD,M,
Boys,67.13,DQ,Wes Griffin,New London West Rusk,64.91,124.74,,124.74,,Single-ply,SBD,M,
Boys,67.13,DQ,Trenton Mitchell,Whitehouse,67.04,104.33,,97.52,,Single-ply,SBD,M,
Boys,74.84,1,Daniel Cabrera,Tyler Chapel Hill,68.27,192.78,129.27,204.12,526.17,Single-ply,SBD,M,
Boys,74.84,2,Thomas Fuller,Arp,74.84,165.56,124.74,210.92,501.22,Single-ply,SBD,M,
Boys,74.84,3,Koal Minor,New London West Rusk,74.84,170.1,88.45,195.04,453.59,Single-ply,SBD,M,
Boys,74.84,4,Jaydon Spradlin,Arp,70.31,161.03,113.4,161.03,435.45,Single-ply,SBD,M,
Boys,74.84,5,Miles Miller,Lindale,73.57,147.42,111.13,163.29,421.84,Single-ply,SBD,M,
Boys,74.84,6,Weston Simmons,Whitehouse,74.66,147.42,79.38,145.15,371.95,Single-ply,SBD,M,
Boys,74.84,7,Kyle Duffy,Arp,68.04,138.35,88.45,142.88,369.68,Single-ply,SBD,M,
Boys,74.84,8,Wyatt Hurst,Arp,68.99,136.08,79.38,151.95,367.41,Single-ply,SBD,M,
Boys,74.84,9,Shawn Sawyer,Arp,67.4,124.74,74.84,147.42,347,Single-ply,SBD,M,
Boys,74.84,10,Josh Hermanns,Tyler Chapel Hill,72.17,97.52,74.84,131.54,303.91,Single-ply,SBD,M,
Boys,82.1,1,Jordon Slayton,Whitehouse,78.83,185.97,124.74,219.99,530.7,Single-ply,SBD,M,
Boys,82.1,2,Nik Moody,Tyler Chapel Hill,78.7,183.7,124.74,219.99,528.44,Single-ply,SBD,M,
Boys,82.1,3,Landon Wilson,Bullard,75.75,170.1,97.52,174.63,442.25,Single-ply,SBD,M,
Boys,82.1,4,Brodie Aylor,Bullard,79.24,165.56,108.86,158.76,433.18,Single-ply,SBD,M,
Boys,82.1,5,Caden Sorrells,Whitehouse,79.88,163.29,97.52,167.83,428.64,Single-ply,SBD,M,
Boys,82.1,6,Emmanuel Ponce,Arp,81.37,151.95,102.06,165.56,419.57,Single-ply,SBD,M,
Boys,82.1,7,Antonio Ponce,Arp,79.15,151.95,95.25,158.76,405.97,Single-ply,SBD,M,
Boys,82.1,8,Caelan Soultanov,Jacksonville,79.2,138.35,88.45,145.15,371.95,Single-ply,SBD,M,
Boys,82.1,9,Gio Ortiz,Lindale,77.52,138.35,74.84,147.42,360.61,Single-ply,SBD,M,
Boys,82.1,10,Rafeal Marquez,New London West Rusk,76.07,124.74,79.38,129.27,333.39,Single-ply,SBD,M,
Boys,82.1,DQ,Logan Cannon,Bullard,81.6,156.49,,,,Single-ply,SBD,M,
Boys,89.81,1,Caleb Bolay,Whitehouse,86.73,263.08,235.87,206.38,705.34,Single-ply,SBD,M,
Boys,89.81,2,Jacob Baker,Troup,88.9,183.7,102.06,217.72,503.49,Single-ply,SBD,M,
Boys,89.81,3,Nick Rodriguez,Tyler Chapel Hill,86.5,165.56,124.74,192.78,483.08,Single-ply,SBD,M,
Boys,89.81,4,Cayden Royal,Bullard,87.41,185.97,104.33,172.37,462.66,Single-ply,SBD,M,
Boys,89.81,5,Jaylon Potts,Arp,84.55,165.56,102.06,188.24,455.86,Single-ply,SBD,M,
Boys,89.81,6,Cameron Hicks,Lindale,88.9,183.7,102.06,163.29,449.06,Single-ply,SBD,M,
Boys,89.81,7,Josue Gaytan,Jacksonville,83.64,156.49,83.91,154.22,394.63,Single-ply,SBD,M,
Boys,89.81,8,Alex Ortiz #5,Lindale,83.05,136.08,77.11,140.61,353.8,Single-ply,SBD,M,
Boys,99.79,1,Caleb Jones,Bullard,94.44,222.26,120.2,195.04,537.51,Single-ply,SBD,M,
Boys,99.79,2,Billy Bateman,Jacksonville,97.61,172.37,124.74,206.38,503.49,Single-ply,SBD,M,
Boys,99.79,3,Peyton Bryan,Whitehouse,98.16,181.44,131.54,181.44,494.42,Single-ply,SBD,M,
Boys,99.79,4,Drew Ragland,Lindale,92.26,179.17,117.93,172.37,469.47,Single-ply,SBD,M,
Boys,99.79,5,Gunner Johnson,Lindale,91.35,170.1,108.86,170.1,449.06,Single-ply,SBD,M,
Boys,99.79,6,Brantley Bauer,Jacksonville,99.79,170.1,92.99,183.7,446.79,Single-ply,SBD,M,
Boys,99.79,7,Craver Green,New London West Rusk,95.71,151.95,102.06,183.7,437.72,Single-ply,SBD,M,
Boys,99.79,8,Julian Gonzalez,Tyler Chapel Hill,98.38,149.69,122.47,151.95,424.11,Single-ply,SBD,M,
Boys,99.79,9,Jose Rodriguez,Jacksonville,93.17,163.29,79.38,138.35,381.02,Single-ply,SBD,M,
Boys,99.79,DQ,Blake Archie,Arp,98.43,,115.67,,,Single-ply,SBD,M,
Boys,99.79,DQ,Sean Flood,Troup,92.85,133.81,,133.81,,Single-ply,SBD,M,
Boys,109.77,1,Austin Taylor,Bullard,108.36,249.48,181.44,226.8,657.71,Single-ply,SBD,M,
Boys,109.77,2,Gabe Hart,Lindale,105.14,201.85,129.27,224.53,555.65,Single-ply,SBD,M,
Boys,109.77,3,Adain Wilson,New London West Rusk,101.97,156.49,102.06,226.8,485.34,Single-ply,SBD,M,
Boys,109.77,4,Brady Robertson,Whitehouse,108.77,170.1,129.27,181.44,480.81,Single-ply,SBD,M,
Boys,109.77,DQ,Chase Wright,Jacksonville,109.36,192.78,92.99,,,Single-ply,SBD,M,
Boys,124.74,1,Johnathan Bush,Whitehouse,124.24,217.72,142.88,206.38,566.99,Single-ply,SBD,M,
Boys,124.74,2,Pablo Cerda,Tyler Chapel Hill,112.45,226.8,142.88,188.24,557.92,Single-ply,SBD,M,
Boys,124.74,3,Landon Daffan,Bullard,112.26,226.8,136.08,192.78,555.65,Single-ply,SBD,M,
Boys,124.74,4,Kason Reed,New London West Rusk,118.48,176.9,102.06,204.12,483.08,Single-ply,SBD,M,
Boys,124.74,5,Austin Ellis,Bullard,119.02,183.7,113.4,174.63,471.74,Single-ply,SBD,M,
Boys,124.74,6,Colton Moncrief,Whitehouse,112.67,149.69,124.74,156.49,430.91,Single-ply,SBD,M,
Boys,124.74,7,Dakoda Whiteley,Jacksonville,112.45,167.83,90.72,170.1,428.64,Single-ply,SBD,M,
Boys,139.71,1,Derek Degrate,Bullard,129.27,226.8,170.1,215.46,612.35,Single-ply,SBD,M,
Boys,139.71,2,Caleb Power,Whitehouse,133.9,238.14,140.61,219.99,598.74,Single-ply,SBD,M,
Boys,139.71,3,Lance Langenbau,Arp,127.19,156.49,136.08,206.38,498.95,Single-ply,SBD,M,
Boys,139.71,4,Cameron Clark,Whitehouse,136.98,158.76,147.42,170.1,476.27,Single-ply,SBD,M,
Boys,139.71+,1,Jalan Lofters,Tyler Chapel Hill,190.64,249.48,124.74,183.7,557.92,Single-ply,SBD,M,
Boys,139.71+,2,Bryce Everett,Arp,146.65,192.78,138.35,195.04,526.17,Single-ply,SBD,M,
