Division,WeightClassKg,Place,Name,Team,BodyweightKg,Best3SquatKg,Best3BenchKg,Best3DeadliftKg,TotalKg,Equipment,Event,Sex
Boys,51.71,1,Jordan Tyler,Pattonville Prairiland,49.9,140.61,77.11,140.61,358.34,Single-ply,SBD,M
Boys,51.71,2,Brady Rose,Mineola,51.26,117.93,61.23,127.01,306.17,Single-ply,SBD,M
Boys,51.71,3,Danny Perez,Detroit,48.72,111.13,56.7,124.74,292.57,Single-ply,SBD,M
Boys,51.71,4,Edgar Simmons,Marshall,50.35,95.25,65.77,120.2,281.23,Single-ply,SBD,M
Boys,51.71,5,Bryan Lambert,Hawkins,48.53,90.72,63.5,108.86,263.08,Single-ply,SBD,M
Boys,51.71,6,Blake Myers,Simms Bowie,50.8,102.06,47.63,102.06,251.74,Single-ply,SBD,M
Boys,51.71,7,Colton Streetman,Grapeland,50.71,81.65,58.97,104.33,244.94,Single-ply,SBD,M
Boys,51.71,8,Lin Gillham,Tyler Grace Community School,51.26,90.72,54.43,95.25,240.4,Single-ply,SBD,M
Boys,51.71,9,Lloyd McGrath,Hawkins,39.92,47.63,29.48,68.04,145.15,Single-ply,SBD,M
Boys,51.71,DQ,Donnie Brdley,Hawkins,,,,,,Single-ply,SBD,M
Boys,51.71,DQ,Aldon Marty,Hawkins,,,,,,Single-ply,SBD,M
Boys,51.71,DQ,Jason Kennedy,Hawkins,,,,,,Single-ply,SBD,M
Boys,51.71,DQ,Timothy McGrath,Hawkins,,,,,,Single-ply,SBD,M
Boys,51.71,DQ,Derek Calvert,Grand Saline,,,,,,Single-ply,SBD,M
Boys,51.71,DQ,Chastin Cline,Detroit,,,,,,Single-ply,SBD,M
Boys,51.71,DQ,Cody Duckworth,Detroit,,,,,,Single-ply,SBD,M
Boys,51.71,DQ,Jordan Mccraven,Gilmer,,,,,,Single-ply,SBD,M
Boys,51.71,DQ,Nick Harper,Texarkana Pleasant Grove,,,,,,Single-ply,SBD,M
Boys,55.79,DQ,Trenton Cook,Quitman,51.89,120.2,,,,Single-ply,SBD,M
Boys,55.79,1,Juan Leija,Bogata Rivercrest,53.98,158.76,92.99,161.03,412.77,Single-ply,SBD,M
Boys,55.79,2,Jalen Williams,Tyler Chapel Hill,53.98,131.54,70.31,129.27,331.12,Single-ply,SBD,M
Boys,55.79,3,Chris Pendergrass,Grand Saline,54.43,108.86,83.91,138.35,331.12,Single-ply,SBD,M
Boys,55.79,4,Storm Bruner,Grapeland,55.79,108.86,65.77,140.61,315.25,Single-ply,SBD,M
Boys,55.79,5,Jake Bradshaw,Winnsboro,53.98,124.74,70.31,106.59,301.64,Single-ply,SBD,M
Boys,55.79,6,Ahmad Traylor,Marshall,55.79,113.4,65.77,120.2,299.37,Single-ply,SBD,M
Boys,59.87,DQ,Gabriel Mariscol,Pittsburg,55.97,,,,,Single-ply,SBD,M
Boys,59.87,1,Cornelus Weaver,Grapeland,58.97,226.8,92.99,190.51,510.29,Single-ply,SBD,M
Boys,59.87,2,Christian Evans,Grapeland,59.87,158.76,102.06,163.29,424.11,Single-ply,SBD,M
Boys,59.87,3,Austin Vaughn,Linden-Kildare,58.51,142.88,95.25,161.03,399.16,Single-ply,SBD,M
Boys,59.87,4,Arturo Peralta,Pattonville Prairiland,58.97,140.61,83.91,170.1,394.63,Single-ply,SBD,M
Boys,59.87,5,Jake Pearlman,Texarkana Pleasant Grove,57.15,149.69,88.45,147.42,385.55,Single-ply,SBD,M
Boys,59.87,6,Thomas Fields,Winnsboro,57.7,151.95,79.38,147.42,378.75,Single-ply,SBD,M
Boys,59.87,7,Colm Donahoe,Texarkana Pleasant Grove,59.87,124.74,86.18,138.35,349.27,Single-ply,SBD,M
Boys,59.87,8,Tres Allen,Simms Bowie,57.61,127.01,72.57,142.88,342.46,Single-ply,SBD,M
Boys,59.87,9,Dedrick Brooks,Diana New Diana,58.51,117.93,74.84,127.01,319.78,Single-ply,SBD,M
Boys,59.87,10,Ethan Callahan,Quitman,59.87,108.86,61.23,113.4,283.5,Single-ply,SBD,M
Boys,59.87,11,Clint Elrod,Detroit,59.87,102.06,61.23,111.13,274.42,Single-ply,SBD,M
Boys,59.87,12,Jason Keasher,Jefferson,59.87,83.91,52.16,102.06,238.14,Single-ply,SBD,M
Boys,59.87,DQ,Doyle Salyer,Gladewater,57.61,111.13,,,,Single-ply,SBD,M
Boys,67.13,1,Jacob Golden,Quitman,66.22,181.44,120.2,181.44,483.08,Single-ply,SBD,M
Boys,67.13,2,Brandon Greene #2,Winnsboro,65.77,185.97,106.59,183.7,476.27,Single-ply,SBD,M
Boys,67.13,3,Justin Wilshusen,Grapeland,66.32,163.29,113.4,165.56,442.25,Single-ply,SBD,M
Boys,67.13,4,Jacquan Williams,Mineola,62.14,151.95,86.18,181.44,419.57,Single-ply,SBD,M
Boys,67.13,5,Jake Blauuw,Texarkana Pleasant Grove,60.33,136.08,102.06,154.22,392.36,Single-ply,SBD,M
Boys,67.13,6,Patrick Woods,Pittsburg,65.41,138.35,77.11,172.37,387.82,Single-ply,SBD,M
Boys,67.13,7,Gage Rainer,Simms Bowie,65.32,129.27,90.72,158.76,378.75,Single-ply,SBD,M
Boys,67.13,8,Dominique Ford,Marshall,62.14,149.69,83.91,142.88,376.48,Single-ply,SBD,M
Boys,67.13,9,Roy Mitchell,Gilmer Union Hill,66.77,127.01,90.72,142.88,360.61,Single-ply,SBD,M
Boys,67.13,10,Dugane Winkle,Winnsboro,62.6,129.27,74.84,142.88,347,Single-ply,SBD,M
Boys,67.13,11,Mathew Howard,Grapeland,62.23,115.67,88.45,140.61,344.73,Single-ply,SBD,M
Boys,67.13,12,Devante Norris,Jefferson,63.05,102.06,83.91,156.49,342.46,Single-ply,SBD,M
Boys,67.13,13,Blue Shirley,Winnsboro,65.77,120.2,74.84,124.74,319.78,Single-ply,SBD,M
Boys,67.13,14,Dylan Winchester,Pittsburg,60.87,129.27,61.23,120.2,310.71,Single-ply,SBD,M
Boys,67.13,15,Travis Bryant,Detroit,61.69,124.74,56.7,129.27,310.71,Single-ply,SBD,M
Boys,67.13,16,Devonya Bell,Detroit,65.32,108.86,70.31,124.74,303.91,Single-ply,SBD,M
Boys,67.13,17,Tyler Piemons,Pattonville Prairiland,66.68,92.99,74.84,129.27,297.1,Single-ply,SBD,M
Boys,67.13,18,Josh Ashworth,Simms Bowie,61.69,106.59,58.97,127.01,292.57,Single-ply,SBD,M
Boys,67.13,19,Brian Graham,Pattonville Prairiland,66.22,88.45,54.43,115.67,258.55,Single-ply,SBD,M
Boys,67.13,DQ,Scott Davis,Detroit,61.23,102.06,,,,Single-ply,SBD,M
Boys,67.13,DQ,Markedray Hollins,Tyler Chapel Hill,62.14,138.35,70.31,,,Single-ply,SBD,M
Boys,74.84,1,Colton Watson,Linden-Kildare,74.39,242.67,142.88,229.06,614.62,Single-ply,SBD,M
Boys,74.84,2,Keandre Goss,Tyler Chapel Hill,71.21,204.12,111.13,240.4,555.65,Single-ply,SBD,M
Boys,74.84,3,Jonathan Hazley,Grapeland,72.67,215.46,113.4,215.46,544.31,Single-ply,SBD,M
Boys,74.84,4,Beau Brewer,Diana New Diana,74.84,195.04,131.54,190.51,517.1,Single-ply,SBD,M
Boys,74.84,5,Carter Cornelius,Marshall,73.94,185.97,124.74,204.12,514.83,Single-ply,SBD,M
Boys,74.84,6,Graeson Bruce,Simms Bowie,71.21,174.63,90.72,204.12,469.47,Single-ply,SBD,M
Boys,74.84,7,Tyrail Hart,Tyler Chapel Hill,73.94,185.97,90.72,192.78,469.47,Single-ply,SBD,M
Boys,74.84,8,Christian Tyree,Hawkins,73.03,174.63,104.33,170.1,449.06,Single-ply,SBD,M
Boys,74.84,9,Zach Loftis,Winnsboro,72.12,181.44,81.65,183.7,446.79,Single-ply,SBD,M
Boys,74.84,10,Trey O'Neal,Clarksville,69.4,172.37,108.86,163.29,444.52,Single-ply,SBD,M
Boys,74.84,11,Carson Turner,Quitman,68.04,170.1,88.45,174.63,433.18,Single-ply,SBD,M
Boys,74.84,12,Tony Walker,Diana New Diana,70.31,174.63,90.72,156.49,421.84,Single-ply,SBD,M
Boys,74.84,13,Travasil Dumas,Diana New Diana,73.48,147.42,90.72,183.7,421.84,Single-ply,SBD,M
Boys,74.84,14,Gavin Nelson,Pittsburg,70.03,176.9,83.91,154.22,415.04,Single-ply,SBD,M
Boys,74.84,15,Brandon Graham,Pattonville Prairiland,73.03,142.88,88.45,170.1,401.43,Single-ply,SBD,M
Boys,74.84,16,Raymond Owens,Grapeland,68.76,142.88,104.33,151.95,399.16,Single-ply,SBD,M
Boys,74.84,17,Kris Best,Diana New Diana,68.49,158.76,92.99,138.35,390.09,Single-ply,SBD,M
Boys,74.84,18,Cody Kaderly,Pittsburg,68.4,149.69,88.45,149.69,387.82,Single-ply,SBD,M
Boys,74.84,19,Danny Ramirez,Winnsboro,68.04,151.95,99.79,124.74,376.48,Single-ply,SBD,M
Boys,74.84,20,Deion Williams,Jefferson,69.85,165.56,86.18,124.74,376.48,Single-ply,SBD,M
Boys,74.84,21,Jacob Harris,Jefferson,74.84,124.74,83.91,165.56,374.21,Single-ply,SBD,M
Boys,74.84,22,Michael Trumble,Pattonville Prairiland,69.4,124.74,74.84,161.03,360.61,Single-ply,SBD,M
Boys,74.84,23,Cody Lint,Pittsburg,67.77,133.81,79.38,136.08,349.27,Single-ply,SBD,M
Boys,74.84,24,John McCollon,Gilmer Union Hill,69.85,108.86,95.25,136.08,340.19,Single-ply,SBD,M
Boys,74.84,25,Kannon Walker,Simms Bowie,72.12,127.01,79.38,133.81,340.19,Single-ply,SBD,M
Boys,74.84,26,Tyler Glover #1,Diana New Diana,74.84,113.4,77.11,138.35,328.85,Single-ply,SBD,M
Boys,74.84,27,Jacob Paap,Simms Bowie,69.85,106.59,52.16,113.4,272.16,Single-ply,SBD,M
Boys,74.84,DQ,Edgar Morales,Mineola,69.4,124.74,,,,Single-ply,SBD,M
Boys,74.84,DQ,Brandon Hill,Diana New Diana,67.59,102.06,,,,Single-ply,SBD,M
Boys,74.84,DQ,Kevin Harris,Jefferson,74.84,170.1,,,,Single-ply,SBD,M
Boys,74.84,DQ,James McBride,Grand Saline,70.76,,,,,Single-ply,SBD,M
Boys,74.84,DQ,Erik Hernandez,Grand Saline,72.57,,,,,Single-ply,SBD,M
Boys,82.1,1,Ashton Slaughter,Winnsboro,82.1,238.14,149.69,199.58,587.4,Single-ply,SBD,M
Boys,82.1,2,Garret Anderson,Bogata Rivercrest,76.66,204.12,142.88,219.99,566.99,Single-ply,SBD,M
Boys,82.1,3,Tyler McInnis,Texarkana Pleasant Grove,81.19,215.46,124.74,192.78,532.97,Single-ply,SBD,M
Boys,82.1,4,Brandon Armstrong,Pittsburg,76.66,204.12,108.86,206.38,519.36,Single-ply,SBD,M
Boys,82.1,5,Ruben Sanchez,Mineola,81.19,199.58,108.86,206.38,514.83,Single-ply,SBD,M
Boys,82.1,6,Brandon Bell,Tyler Chapel Hill,80.74,199.58,113.4,199.58,512.56,Single-ply,SBD,M
Boys,82.1,7,Lairamie Lee,Tyler Chapel Hill,78.02,185.97,113.4,201.85,501.22,Single-ply,SBD,M
Boys,82.1,8,Matt DeGroot,Texarkana Pleasant Grove,81.19,199.58,108.86,190.51,498.95,Single-ply,SBD,M
Boys,82.1,9,Austin Musser,Mineola,78.02,172.37,92.99,181.44,446.79,Single-ply,SBD,M
Boys,82.1,10,Caleb Stephens,Simms Bowie,78.47,170.1,95.25,176.9,442.25,Single-ply,SBD,M
Boys,82.1,11,Josh Garton,Simms Bowie,78.02,179.17,92.99,163.29,435.45,Single-ply,SBD,M
Boys,82.1,12,Zachery Wilshusen,Grapeland,76.38,142.88,97.52,181.44,421.84,Single-ply,SBD,M
Boys,82.1,13,Dakota Maxfiled,Winona,79.83,158.76,102.06,158.76,419.57,Single-ply,SBD,M
Boys,82.1,14,Adam Owens,Texarkana Pleasant Grove,78.93,149.69,88.45,158.76,396.89,Single-ply,SBD,M
Boys,82.1,15,Sadarius Figures,Jefferson,78.47,133.81,81.65,151.95,367.41,Single-ply,SBD,M
Boys,82.1,16,Ryan Gearner,Winnsboro,75.75,140.61,79.38,145.15,365.14,Single-ply,SBD,M
Boys,82.1,17,Jeb Wolter,Gilmer,82.1,140.61,90.72,127.01,358.34,Single-ply,SBD,M
Boys,82.1,18,Caleb Glover,Diana New Diana,80.74,136.08,81.65,138.35,356.07,Single-ply,SBD,M
Boys,82.1,19,Shane Autry,Detroit,75.3,138.35,74.84,138.35,351.53,Single-ply,SBD,M
Boys,82.1,20,Dylan Stringer,Detroit,78.02,147.42,74.84,129.27,351.53,Single-ply,SBD,M
Boys,82.1,21,Eric Obregon,Jefferson,77.11,124.74,83.91,136.08,344.73,Single-ply,SBD,M
Boys,82.1,22,Dow Henderson,Pattonville Prairiland,76.2,106.59,72.57,136.08,315.25,Single-ply,SBD,M
Boys,89.81,1,Demeon Timmons,Marshall,85.73,244.94,156.49,240.4,641.83,Single-ply,SBD,M
Boys,89.81,2,Carlos Riviera,Mineola,84.82,258.55,142.88,235.87,637.3,Single-ply,SBD,M
Boys,89.81,3,Josh Takacs,Winnsboro,88.54,260.82,138.35,238.14,637.3,Single-ply,SBD,M
Boys,89.81,4,Dekota Newson,Marshall,88.9,240.4,124.74,235.87,601.01,Single-ply,SBD,M
Boys,89.81,5,Quan Bell,Clarksville,85.28,219.99,149.69,226.8,596.47,Single-ply,SBD,M
Boys,89.81,6,Colt Corey,Gladewater,86.64,208.65,136.08,215.46,560.19,Single-ply,SBD,M
Boys,89.81,7,Caleb Burham,Winona,84.37,215.46,113.4,215.46,544.31,Single-ply,SBD,M
Boys,89.81,8,Noah Hutchinson,Texarkana Pleasant Grove,83.01,213.19,131.54,181.44,526.17,Single-ply,SBD,M
Boys,89.81,9,Adrian Foster,Marshall,89.36,163.29,122.47,185.97,471.74,Single-ply,SBD,M
Boys,89.81,10,Derrek Brister,Grapeland,86.91,165.56,99.79,190.51,455.86,Single-ply,SBD,M
Boys,89.81,11,Keiundas Wade,Tyler Chapel Hill,89.36,151.95,102.06,199.58,453.59,Single-ply,SBD,M
Boys,89.81,12,Kenderson Cooks,Marshall,83.01,181.44,83.91,181.44,446.79,Single-ply,SBD,M
Boys,89.81,13,Dylan Anders,Winnsboro,84.82,181.44,104.33,156.49,442.25,Single-ply,SBD,M
Boys,89.81,14,Nestar Santos,Mineola,83.46,163.29,99.79,172.37,435.45,Single-ply,SBD,M
Boys,89.81,15,Adam Stewart,Tyler Chapel Hill,87.54,158.76,86.18,176.9,421.84,Single-ply,SBD,M
Boys,89.81,16,Hershal Hawkins,Tyler Chapel Hill,88.9,167.83,83.91,161.03,412.77,Single-ply,SBD,M
Boys,89.81,17,Lucas Dickens,Detroit,85.73,156.49,99.79,151.95,408.23,Single-ply,SBD,M
Boys,89.81,18,Tanner Morris,Winnsboro,83.73,129.27,97.52,163.29,390.09,Single-ply,SBD,M
Boys,89.81,19,Justin Smith #17,Grand Saline,88.9,142.88,86.18,161.03,390.09,Single-ply,SBD,M
Boys,89.81,20,John Coe,Linden-Kildare,83.46,145.15,83.91,147.42,376.48,Single-ply,SBD,M
Boys,89.81,21,Pete Laughlin,Hawkins,86.64,124.74,92.99,156.49,374.21,Single-ply,SBD,M
Boys,89.81,22,Xavious Allen,Linden-Kildare,87.54,147.42,79.38,147.42,374.21,Single-ply,SBD,M
Boys,89.81,23,Colin Ashbreck,Tyler Grace Community School,85.28,154.22,61.23,154.22,369.68,Single-ply,SBD,M
Boys,89.81,24,Nigel Brown,Linden-Kildare,82.55,113.4,102.06,149.69,365.14,Single-ply,SBD,M
Boys,89.81,25,Jared Stewart,Tyler Grace Community School,83.46,136.08,77.11,145.15,358.34,Single-ply,SBD,M
Boys,89.81,26,Zane Hrdeckey,Winnsboro,85.28,124.74,74.84,142.88,342.46,Single-ply,SBD,M
Boys,89.81,27,Ryan Henson,Diana New Diana,88,86.18,65.77,140.61,292.57,Single-ply,SBD,M
Boys,89.81,28,Josh Wilson,Pattonville Prairiland,84.37,106.59,43.09,124.74,274.42,Single-ply,SBD,M
Boys,89.81,DQ,Aaron Cunningham,Pattonville Prairiland,84.82,147.42,,,,Single-ply,SBD,M
Boys,89.81,DQ,Johnny Lehman,Quitman,89.81,161.03,,,,Single-ply,SBD,M
Boys,89.81,DQ,Cory Walls,Marshall,88.9,,,,,Single-ply,SBD,M
Boys,89.81,DQ,Sam Yard,Grand Saline,86.64,131.54,,,,Single-ply,SBD,M
Boys,99.79,1,Quinton Thomas,Gladewater,97.07,263.08,181.44,260.82,705.34,Single-ply,SBD,M
Boys,99.79,2,Coty Rodriguez,Winnsboro,95.25,231.33,183.7,229.06,644.1,Single-ply,SBD,M
Boys,99.79,3,Daniel Wood,Texarkana Pleasant Grove,94.35,240.4,151.95,229.06,621.42,Single-ply,SBD,M
Boys,99.79,4,Josh Burks,Clarksville,95.71,238.14,136.08,204.12,578.33,Single-ply,SBD,M
Boys,99.79,5,Dillon Bates,Mineola,95.71,208.65,142.88,217.72,569.26,Single-ply,SBD,M
Boys,99.79,6,John Caruso,Mineola,94.35,201.85,133.81,229.06,564.72,Single-ply,SBD,M
Boys,99.79,7,Bubba Garcia,Pittsburg,93.26,226.8,129.27,188.24,544.31,Single-ply,SBD,M
Boys,99.79,8,Joel Palma,Grand Saline,95.71,222.26,120.2,201.85,544.31,Single-ply,SBD,M
Boys,99.79,9,Lorenzo Cavillio,Clarksville,94.8,183.7,136.08,217.72,537.51,Single-ply,SBD,M
Boys,99.79,10,Trevor Hudson,Mineola,95.25,206.38,115.67,206.38,528.44,Single-ply,SBD,M
Boys,99.79,11,Cory Dawson,Marshall,94.8,185.97,127.01,208.65,521.63,Single-ply,SBD,M
Boys,99.79,12,Ryan Johnson #17,Winnsboro,93.89,226.8,129.27,163.29,519.36,Single-ply,SBD,M
Boys,99.79,13,Tyler Lint,Pittsburg,97.07,206.38,124.74,174.63,505.76,Single-ply,SBD,M
Boys,99.79,14,Thomas Reynolds,Marshall,95.25,183.7,106.59,199.58,489.88,Single-ply,SBD,M
Boys,99.79,15,Cody Belt,Diana New Diana,96.62,165.56,115.67,204.12,485.34,Single-ply,SBD,M
Boys,99.79,16,Richard Hastin,Hawkins,92.99,158.76,86.18,142.88,387.82,Single-ply,SBD,M
Boys,99.79,17,Anthony McGovern,Winnsboro,97.07,163.29,90.72,133.81,387.82,Single-ply,SBD,M
Boys,99.79,18,Daniel Fish,Winnsboro,99.34,124.74,97.52,147.42,369.68,Single-ply,SBD,M
Boys,99.79,19,Randal Hawkins,Simms Bowie,95.71,122.47,83.91,154.22,360.61,Single-ply,SBD,M
Boys,109.77,1,Brandon McGlone,Winnsboro,105.23,247.21,145.15,224.53,616.89,Single-ply,SBD,M
Boys,109.77,2,Adrian McCoy,Marshall,106.14,244.94,142.88,217.72,605.55,Single-ply,SBD,M
Boys,109.77,3,Michael Golden,Quitman,105.69,226.8,147.42,215.46,589.67,Single-ply,SBD,M
Boys,109.77,4,Joseph Crain,Quitman,109.5,222.26,122.47,192.78,537.51,Single-ply,SBD,M
Boys,109.77,5,Andrew Epps,Mineola,101.6,210.92,106.59,204.12,521.63,Single-ply,SBD,M
Boys,109.77,6,Alex Paredes,Grand Saline,104.78,176.9,117.93,204.12,498.95,Single-ply,SBD,M
Boys,109.77,7,Lawrence Duval,Grapeland,107.59,176.9,102.06,170.1,449.06,Single-ply,SBD,M
Boys,109.77,8,Colton Moorehead,Tyler Chapel Hill,105.23,167.83,106.59,170.1,444.52,Single-ply,SBD,M
Boys,109.77,9,Taren Sartor,Pattonville Prairiland,105.23,156.49,102.06,181.44,439.98,Single-ply,SBD,M
Boys,109.77,10,David Chavez,Pittsburg,104.42,179.17,88.45,165.56,433.18,Single-ply,SBD,M
Boys,109.77,11,Jaime Humphrey,Pattonville Prairiland,109.32,136.08,77.11,131.54,344.73,Single-ply,SBD,M
Boys,124.74,1,Teven Trammell,Marshall,115.21,233.6,147.42,219.99,601.01,Single-ply,SBD,M
Boys,124.74,2,Jensen Jackson,Marshall,117.03,242.67,151.95,206.38,601.01,Single-ply,SBD,M
Boys,124.74,3,Garrett Kruse,Simms Bowie,117.48,249.48,127.01,210.92,587.4,Single-ply,SBD,M
Boys,124.74,4,Jacob Witt,Diana New Diana,117.93,204.12,115.67,219.99,539.77,Single-ply,SBD,M
Boys,124.74,5,Vince Davis,Detroit,113.85,208.65,120.2,208.65,537.51,Single-ply,SBD,M
Boys,124.74,6,James McTyre,Jefferson,121.56,158.76,127.01,195.04,480.81,Single-ply,SBD,M
Boys,124.74,7,Dennis Wilson,Jefferson,120.2,163.29,124.74,181.44,469.47,Single-ply,SBD,M
Boys,124.74,8,Brandon Williams #4,Marshall,111.13,199.58,97.52,158.76,455.86,Single-ply,SBD,M
Boys,124.74,9,Heath Smith,Grapeland,117.66,161.03,113.4,181.44,455.86,Single-ply,SBD,M
Boys,124.74,10,Jon Hurndon,Pittsburg,117.21,190.51,108.86,154.22,453.59,Single-ply,SBD,M
Boys,124.74,11,Victor Chunn,Winnsboro,110.68,156.49,102.06,158.76,417.3,Single-ply,SBD,M
Boys,124.74,DQ,Brian Bouzek,Diana New Diana,122.92,188.24,124.74,,,Single-ply,SBD,M
Boys,124.74+,1,Harry White,Pittsburg,161.57,328.85,161.03,247.21,737.09,Single-ply,SBD,M
Boys,124.74+,2,Montana Duncan,Mineola,127.46,201.85,136.08,185.97,523.9,Single-ply,SBD,M
Boys,124.74+,3,Joshua Byrd,Marshall,136.08,213.19,115.67,179.17,508.02,Single-ply,SBD,M
Boys,124.74+,4,Noe Jose,Grand Saline,147.42,188.24,88.45,163.29,439.98,Single-ply,SBD,M
Boys,124.74+,5,Josh Green,Pattonville Prairiland,153.31,136.08,111.13,163.29,410.5,Single-ply,SBD,M
Boys,124.74+,6,Jason Thorpe,Gilmer,125.65,149.69,92.99,151.95,394.63,Single-ply,SBD,M
Boys,124.74+,DQ,Matt Kirkland,Pittsburg,132.09,317.51,,,,Single-ply,SBD,M
