Division,WeightClassKg,Place,Name,Team,BodyweightKg,Best3SquatKg,Best3BenchKg,Best3DeadliftKg,TotalKg,Equipment,Event,Sex,BirthDate
Boys,51.71,1,Bryan Diaz,Longview Pine Tree,49.08,97.52,68.04,122.47,288.03,Single-ply,SBD,M,
Boys,51.71,2,Kaleb Dollison,Longview Pine Tree,49.62,99.79,54.43,106.59,260.82,Single-ply,SBD,M,
Boys,51.71,3,Jonathan Ortega,Winona,46.63,83.91,47.63,95.25,226.8,Single-ply,SBD,M,
Boys,55.79,1,Benito Castro,Longview Pine Tree,53.98,117.93,49.9,142.88,310.71,Single-ply,SBD,M,
Boys,55.79,2,Luis Ortega,Winona,53.8,115.67,65.77,127.01,308.44,Single-ply,SBD,M,
Boys,55.79,3,Vicente Ordorica,Winona,54.43,102.06,70.31,106.59,278.96,Single-ply,SBD,M,
Boys,55.79,DQ,Isaiah Hardison,Joaquin,54.88,,,,,Single-ply,SBD,M,
Boys,59.87,1,Earl Williams,Longview Pine Tree,59.78,142.88,83.91,172.37,399.16,Single-ply,SBD,M,
Boys,59.87,2,Omar Sanez,Winona,58.6,147.42,88.45,156.49,392.36,Single-ply,SBD,M,
Boys,59.87,3,Joseph Cordova,Longview Pine Tree,59.78,142.88,77.11,142.88,362.87,Single-ply,SBD,M,
Boys,59.87,4,Trent Byers,Rusk,58.6,92.99,61.23,111.13,265.35,Single-ply,SBD,M,
Boys,59.87,5,Luke Hernandez,Joaquin,57.33,92.99,56.7,102.06,251.74,Single-ply,SBD,M,
Boys,59.87,6,Tanner Brooks,Rusk,57.97,77.11,52.16,111.13,240.4,Single-ply,SBD,M,
Boys,59.87,DQ,Jayden Rampy,Cayuga,58.79,117.93,,,,Single-ply,SBD,M,
Boys,59.87,DQ,Roberto Santolva,Rusk,58.88,86.18,,,,Single-ply,SBD,M,
Boys,67.13,1,Tyler Hunt,Palestine,66.32,197.31,124.74,192.78,514.83,Single-ply,SBD,M,
Boys,67.13,2,Demarian Sanders,Tyler Chapel Hill,62.96,142.88,95.25,188.24,426.38,Single-ply,SBD,M,
Boys,67.13,3,Raimone Flournoy,Longview Pine Tree,67.04,154.22,108.86,158.76,421.84,Single-ply,SBD,M,
Boys,67.13,4,Khoen Baker,Joaquin,66.68,154.22,97.52,158.76,410.5,Single-ply,SBD,M,
Boys,67.13,5,Jalynn Robinson,Longview Pine Tree,63.32,147.42,99.79,158.76,405.97,Single-ply,SBD,M,
Boys,67.13,6,David Doan,Tyler Chapel Hill,63.59,142.88,74.84,163.29,381.02,Single-ply,SBD,M,
Boys,67.13,7,Hayden Dyess,Rusk,65.59,133.81,79.38,151.95,365.14,Single-ply,SBD,M,
Boys,67.13,8,Hayden Goolsby,Cayuga,63.96,122.47,72.57,142.88,337.93,Single-ply,SBD,M,
Boys,67.13,9,Derek Bowers,Bullard,64.5,124.74,86.18,124.74,335.66,Single-ply,SBD,M,
Boys,67.13,10,Anothony Rojo,Rusk,65.41,127.01,72.57,124.74,324.32,Single-ply,SBD,M,
Boys,67.13,11,Rafael Chavez,Winona,60.87,115.67,79.38,120.2,315.25,Single-ply,SBD,M,
Boys,67.13,12,Derrick Owens,Frankston,64.23,111.13,74.84,108.86,294.84,Single-ply,SBD,M,
Boys,67.13,13,Julian Alonzo,Rusk,66.77,86.18,56.7,106.59,249.48,Single-ply,SBD,M,
Boys,67.13,14,Caiden Lee,Bullard,67.04,163.29,,,163.29,Single-ply,S,M,
Boys,67.13,15,Cannon Fusssel,Palestine,66.77,131.54,,,131.54,Single-ply,S,M,
Boys,74.84,1,Mickey Ray,Bullard,73.48,204.12,111.13,219.99,535.24,Single-ply,SBD,M,
Boys,74.84,2,Daniel Cabrera,Tyler Chapel Hill,67.59,195.04,122.47,208.65,526.17,Single-ply,SBD,M,
Boys,74.84,3,Seth Barker,Cayuga,73.48,197.31,106.59,188.24,492.15,Single-ply,SBD,M,
Boys,74.84,4,Keyton Bohannon,Mabank,74.39,170.1,120.2,192.78,483.08,Single-ply,SBD,M,
Boys,74.84,5,Carson Levee,Winona,71.21,181.44,102.06,185.97,469.47,Single-ply,SBD,M,
Boys,74.84,6,Elijah Bergin,Winona,71.49,179.17,88.45,199.58,467.2,Single-ply,SBD,M,
Boys,74.84,7,Jaborian Cook,Tyler Chapel Hill,68.49,176.9,106.59,179.17,462.66,Single-ply,SBD,M,
Boys,74.84,8,Malachi Gray,Longview Pine Tree,73.66,172.37,99.79,181.44,453.59,Single-ply,SBD,M,
Boys,74.84,9,Alex Gonzalez #3,Mabank,68.67,170.1,90.72,172.37,433.18,Single-ply,SBD,M,
Boys,74.84,10,Abraham Rosales,Rusk,72.48,165.56,104.33,158.76,428.64,Single-ply,SBD,M,
Boys,74.84,11,Mason Trowbridge,Rusk,73.75,138.35,90.72,183.7,412.77,Single-ply,SBD,M,
Boys,74.84,12,Nathan Carruth,Mabank,74.57,147.42,77.11,172.37,396.89,Single-ply,SBD,M,
Boys,74.84,13,Alan Rojo,Rusk,67.77,151.95,86.18,154.22,392.36,Single-ply,SBD,M,
Boys,74.84,14,Kyle Hooper,Rusk,68.49,120.2,83.91,124.74,328.85,Single-ply,SBD,M,
Boys,74.84,15,Dawson Renau,Rusk,69.04,102.06,83.91,138.35,324.32,Single-ply,SBD,M,
Boys,74.84,16,Timmy Ryals,Frankston,71.12,108.86,74.84,138.35,322.05,Single-ply,SBD,M,
Boys,74.84,DQ,Justin Birch,Frankston,68.86,,,,,Single-ply,SBD,M,
Boys,74.84,DQ,JoJo Reeves,Rusk,71.76,,,,,Single-ply,SBD,M,
Boys,82.1,1,Brandon Browning,Mabank,77.56,188.24,124.74,185.97,498.95,Single-ply,SBD,M,
Boys,82.1,2,Nik Moody,Tyler Chapel Hill,78.47,170.1,120.2,204.12,494.42,Single-ply,SBD,M,
Boys,82.1,3,Corey Caldwell,Cayuga,80.1,195.04,111.13,181.44,487.61,Single-ply,SBD,M,
Boys,82.1,4,Michael Littles,Winona,81.19,179.17,106.59,195.04,480.81,Single-ply,SBD,M,
Boys,82.1,5,Josh Rios,Mabank,77.02,174.63,104.33,174.63,453.59,Single-ply,SBD,M,
Boys,82.1,6,Landon Wilson,Bullard,75.84,174.63,102.06,174.63,451.32,Single-ply,SBD,M,
Boys,82.1,7,Brodie Aylor,Bullard,78.83,176.9,104.33,165.56,446.79,Single-ply,SBD,M,
Boys,82.1,8,Shiloh Peckham,Cayuga,79.29,158.76,77.11,170.1,405.97,Single-ply,SBD,M,
Boys,82.1,9,Ty Neal,Joaquin,82.1,142.88,92.99,167.83,403.7,Single-ply,SBD,M,
Boys,82.1,10,John Kwak,Rusk,81.19,151.95,88.45,158.76,399.16,Single-ply,SBD,M,
Boys,82.1,11,Pedro Alonzo,Rusk,77.02,133.81,90.72,158.76,383.29,Single-ply,SBD,M,
Boys,82.1,12,Caelan Soultanov,Jacksonville,80.2,140.61,81.65,151.95,374.21,Single-ply,SBD,M,
Boys,82.1,13,Josue Gaytan,Jacksonville,81.19,131.54,86.18,149.69,367.41,Single-ply,SBD,M,
Boys,82.1,14,Hunter Link,Cayuga,77.02,124.74,70.31,140.61,335.66,Single-ply,SBD,M,
Boys,82.1,15,Christian Morales,Mabank,77.02,154.22,120.2,,274.42,Single-ply,SB,M,
Boys,82.1,DQ,Jermny Walker,Palestine,77.29,,,,,Single-ply,SBD,M,
Boys,82.1,DQ,Alex Alvarez #5,Rusk,79.56,136.08,,,,Single-ply,SBD,M,
Boys,89.81,1,Esteban Munoz,Winona,89.09,238.14,131.54,206.38,576.06,Single-ply,SBD,M,
Boys,89.81,2,Andre Brown,Joaquin,87.09,204.12,113.4,195.04,512.56,Single-ply,SBD,M,
Boys,89.81,3,Dylan Stairs,Mabank,88.09,174.63,115.67,204.12,494.42,Single-ply,SBD,M,
Boys,89.81,4,Joshua Arredondo,Rusk,86.91,192.78,113.4,183.7,489.88,Single-ply,SBD,M,
Boys,89.81,5,Demarquay Ford,Winona,88.54,165.56,120.2,199.58,485.34,Single-ply,SBD,M,
Boys,89.81,6,Preston Armstrong,Longview Pine Tree,86.73,181.44,117.93,181.44,480.81,Single-ply,SBD,M,
Boys,89.81,7,Fabian Marquiz,Palestine,83.19,185.97,106.59,183.7,476.27,Single-ply,SBD,M,
Boys,89.81,8,Caleb Chase,Mabank,83.01,181.44,111.13,167.83,460.4,Single-ply,SBD,M,
Boys,89.81,9,Ty Chandler,Jacksonville,87.27,165.56,102.06,151.95,419.57,Single-ply,SBD,M,
Boys,89.81,DQ,Caden Royal,Bullard,88.54,,,,,Single-ply,SBD,M,
Boys,99.79,1,Mark Daniels,Longview Pine Tree,96.07,215.46,172.37,226.8,614.62,Single-ply,SBD,M,
Boys,99.79,2,Samuel Bowker,Mabank,91.44,215.46,156.49,208.65,580.6,Single-ply,SBD,M,
Boys,99.79,3,Billy Bateman,Jacksonville,94.8,183.7,142.88,213.19,539.77,Single-ply,SBD,M,
Boys,99.79,4,Kaizen Burrows,Mabank,93.98,215.46,124.74,176.9,517.1,Single-ply,SBD,M,
Boys,99.79,5,Kolten Goolsby,Cayuga,91.9,204.12,99.79,181.44,485.34,Single-ply,SBD,M,
Boys,99.79,6,Kolby Smith,Mabank,91.72,170.1,108.86,199.58,478.54,Single-ply,SBD,M,
Boys,99.79,7,Brantley Bauer,Jacksonville,99.06,176.9,97.52,188.24,462.66,Single-ply,SBD,M,
Boys,99.79,8,Jaden Henry,Cayuga,92.53,183.7,102.06,172.37,458.13,Single-ply,SBD,M,
Boys,99.79,9,David Tomaszewski,Joaquin,92.44,183.7,102.06,167.83,453.59,Single-ply,SBD,M,
Boys,99.79,10,Julian Gonzalez,Tyler Chapel Hill,98.7,156.49,111.13,161.03,428.64,Single-ply,SBD,M,
Boys,99.79,11,Landon Henry,Cayuga,98.07,161.03,92.99,158.76,412.77,Single-ply,SBD,M,
Boys,99.79,12,Jose Rodriguez,Jacksonville,95.07,174.63,88.45,147.42,410.5,Single-ply,SBD,M,
Boys,99.79,13,Brayden Brucia,Rusk,96.07,142.88,104.33,151.95,399.16,Single-ply,SBD,M,
Boys,99.79,14,Asher Malone,Bullard,93.44,120.2,79.38,151.95,351.53,Single-ply,SBD,M,
Boys,99.79,15,Lisandro Ortega,Rusk,92.17,124.74,70.31,136.08,331.12,Single-ply,SBD,M,
Boys,99.79,16,Timmy Buford,Rusk,97.98,108.86,70.31,142.88,322.05,Single-ply,SBD,M,
Boys,109.77,1,Emmanuel Carranza,Longview Pine Tree,103.42,197.31,111.13,172.37,480.81,Single-ply,SBD,M,
Boys,109.77,2,Anthony Cummings,Jacksonville,100.52,181.44,108.86,183.7,474,Single-ply,SBD,M,
Boys,109.77,3,Braden Dotson,Frankston,106.87,142.88,95.25,145.15,383.29,Single-ply,SBD,M,
Boys,109.77,4,Eli Arias,Rusk,109.04,99.79,77.11,158.76,335.66,Single-ply,SBD,M,
Boys,109.77,DQ,Hector Ruiz,Palestine,105.51,,,,,Single-ply,SBD,M,
Boys,109.77,DQ,Kaleb Remedies,Winona,102.24,,,,,Single-ply,SBD,M,
Boys,109.77,DQ,Chase Wright,Jacksonville,108.32,,,,,Single-ply,SBD,M,
Boys,124.74,1,Raul Carrasco,Mabank,122.74,272.16,145.15,235.87,653.17,Single-ply,SBD,M,
Boys,124.74,2,Alex Oxford,Frankston,124.28,249.48,149.69,183.7,582.87,Single-ply,SBD,M,
Boys,124.74,3,Pablo Cerda,Tyler Chapel Hill,112.13,215.46,145.15,174.63,535.24,Single-ply,SBD,M,
Boys,124.74,4,Austin Ellis,Bullard,121.29,197.31,113.4,183.7,494.42,Single-ply,SBD,M,
Boys,124.74,5,Micha Givens,Rusk,112.67,183.7,106.59,163.29,453.59,Single-ply,SBD,M,
Boys,124.74,6,Dakoda Whiteley,Jacksonville,114.49,170.1,97.52,181.44,449.06,Single-ply,SBD,M,
Boys,124.74,7,Peyton Davis #2,Longview Pine Tree,110.68,170.1,102.06,174.63,446.79,Single-ply,SBD,M,
Boys,124.74,8,Joel Rodriguez,Cayuga,118.3,154.22,90.72,154.22,399.16,Single-ply,SBD,M,
Boys,124.74,9,Leonel Ortega,Rusk,119.57,142.88,83.91,158.76,385.55,Single-ply,SBD,M,
Boys,124.74,DQ,Corey Johnson,Tyler Chapel Hill,113.76,,,,,Single-ply,SBD,M,
Boys,139.71,1,Derek Degrate,Bullard,126.46,233.6,170.1,226.8,630.49,Single-ply,SBD,M,
Boys,139.71,2,Jamaryian Black,Palestine,134.08,231.33,158.76,235.87,625.96,Single-ply,SBD,M,
Boys,139.71,3,Jacob Ingram,Cayuga,133.63,204.12,106.59,199.58,510.29,Single-ply,SBD,M,
Boys,139.71,4,Ethan Davis,Joaquin,134.17,192.78,142.88,158.76,494.42,Single-ply,SBD,M,
Boys,139.71,5,Trey Ferguson,Jacksonville,138.25,192.78,95.25,183.7,471.74,Single-ply,SBD,M,
Boys,139.71,6,Julian Garcia,Palestine,125.83,142.88,95.25,181.44,419.57,Single-ply,SBD,M,
Boys,139.71+,1,Johnny Morales,Cayuga,143.34,267.62,136.08,249.48,653.17,Single-ply,SBD,M,
Boys,139.71+,2,Jalan Lofters,Tyler Chapel Hill,190.87,272.16,163.29,208.65,644.1,Single-ply,SBD,M,
Boys,139.71+,DQ,Fernando Rodiguez,Winona,158.76,,,,,Single-ply,SBD,M,
Boys,139.71+,DQ,Brayden Brawner,Rusk,147.87,151.95,,,,Single-ply,SBD,M,
Boys,139.71+,DQ,Jeremiah Moffit,Palestine,181.71,,,,,Single-ply,SBD,M,
Boys,,NS,Kaleb Hagan,Palestine,,,,,,Single-ply,SBD,M,
Boys,,NS,Alex Sierra,Palestine,,,,,,Single-ply,SBD,M,
Boys,,NS,Tyrell Gause,Tyler Chapel Hill,,,,,,Single-ply,SBD,M,
Boys,,NS,Nick Rodriguez,Tyler Chapel Hill,,,,,,Single-ply,SBD,M,
Boys,,NS,Josh Hermans,Tyler Chapel Hill,,,,,,Single-ply,SBD,M,
Boys,,NS,Austin Taylor,Bullard,,,,,,Single-ply,SBD,M,
Boys,,NS,Landon Daffan,Bullard,,,,,,Single-ply,SBD,M,
Boys,,NS,Charlie Sawyer,Frankston,,,,,,Single-ply,SBD,M,
Boys,,NS,Kaleb Lawson,Frankston,,,,,,Single-ply,SBD,M,
Boys,,NS,Stephen Long,Frankston,,,,,,Single-ply,SBD,M,
Boys,,NS,Aiden Gay,Jacksonville,,,,,,Single-ply,SBD,M,
Boys,,NS,Nahum Rivera,Joaquin,,,,,,Single-ply,SBD,M,
